1509-650-CM16
1515-369-CM16
1815-1039-CM16
1828-31-CM17
1953-11498-CM16
2080-11239-CM16
2098-2136-CM16
2098-2142-CM16
2273-3294-CM16
2727-1572-CM16
3073-1025-CM16
3182-253-CM16
3708-658-CM16
4964-174-CM16
5190-1047-CM16
5190-915-CM16
5190-990-CM16
5194-486-CM16
557509-7-CM17
585-666-CM16
646578-355-CM16
837322-29-CM17
860729-20-CM16
