1020-76-CM17
1020-77-CM17
1026-5-SE17
1029-48-CM17
1038-149-CM17
1039-213-CM17
1048-106-SE17
1092-34-SE17
1158-32-CM17
1158-35-CM17
1158-43-CM17
1159-11-CM17
1159-25-SE17
1161-91-CM17
1175-234-CM17
1176-43-SE17
1213-85-CM17
1223-1-CM17
1233-22-SE17
1260-95-CM17
1269-2-CM17
1269-3-CM17
1269-5-CM17
1269-6-CM17
1269-7-CM17
1274-74-CM17
1288-102-CM17
1288-112-SE17
1288-122-CM17
1288-81-CM17
1324-25-CM17
1348-22-SE17
1349-24-CM17
1373-121-CM17
1373-159-SE17
1376-128-SE17
1377-20-CM17
1380-1231-CM17
1380-1245-CM17
1380-1276-SE17
1380-1357-CM17
1380-1391-SE17
1380-1448-SE17
1380-1559-SE17
1380-1580-SE17
1380-1584-SE17
1380-1585-SE17
1380-1587-SE17
1380-1588-SE17
1380-1604-SE17
1380-1607-SE17
1380-1624-SE17
1380-1630-SE17
1380-1633-SE17
1380-1636-SE17
1380-1637-SE17
1380-1640-SE17
1380-1655-SE17
1380-1660-SE17
1380-1667-SE17
1380-1670-SE17
1380-1671-SE17
1380-1676-SE17
1380-1682-SE17
1380-1685-SE17
1380-1686-SE17
1382-292-SE17
1391-1010-SE17
1391-1014-CM17
1391-1018-CM17
1391-1019-CM17
1391-1021-CM17
1391-1026-CM17
1391-1027-SE17
1391-583-CM17
1391-6183-SE16
1391-730-CM17
1391-880-CM17
1391-9335-CM16
1391-9374-CM16
1391-986-CM17
1393-124-SE17
1395-135-CM17
1398-168-CM17
1403-317-SE17
1409-30-SE17
1411-1105-CM17
1411-1112-CM17
1411-1114-CM17
1411-1118-SE17
1413-248-CM17
1413-316-CM17
1413-317-CM17
1413-320-CM17
14-179-CM17
14-196-CM17
1424-14-CM17
1437-294-SE17
1443-19-CM17
1449-11-CM17
1454-204-SE17
1454-209-SE17
1461-10-CM17
1462-30-CM17
1464-185-CM17
1493-108-SE17
1493-111-SE17
1493-112-SE17
1499-1026-CM17
1499-1030-SE17
1499-990-CM17
1499-996-SE17
1506-30-SE17
1506-338-SE16
1511-1013-SE16
1511-1081-SE16
1511-1089-SE16
1511-1202-SE16
1511-1203-SE16
1511-1293-SE16
1511-1294-SE16
1511-1295-SE16
1511-1298-SE16
1511-1344-SE16
1511-1432-SE16
1511-1433-SE16
1511-1436-SE16
1511-1438-SE16
1511-1440-SE16
1511-1442-SE16
1511-1492-SE16
1511-1503-SE16
1511-1511-SE16
1511-1513-SE16
1511-1514-SE16
1511-1537-SE16
1511-1571-SE16
1511-83-SE17
1514-459-SE17
1514-462-SE17
1514-470-CM17
1514-472-CM17
1514-474-SE17
1514-486-CM17
1514-502-SE17
1514-547-SE17
1514-559-SE17
1514-572-SE17
1514-587-SE17
1514-592-SE17
1514-604-SE17
1514-606-SE17
1514-608-SE17
1514-610-SE17
1520-189-CM17
1520-198-CM17
1520-217-SE17
1523-301-SE17
1523-308-SE17
1523-313-CM17
1523-323-SE17
1524-194-CM17
1524-238-CM17
1524-253-CM17
1524-278-SE17
1524-279-SE17
1528-16-CM17
1529-95-SE17
1540-62-CM17
1541-827-SE17
1541-828-SE17
1541-833-SE17
1541-865-CM17
1541-871-SE17
1541-878-SE17
1541-893-SE17
1545-1125-SE17
1545-1129-SE17
1545-1137-SE17
1545-1138-SE17
1545-1143-SE17
1545-1148-SE17
1545-1161-SE17
1547-267-SE17
1547-280-SE17
1547-424-SE17
1547-426-SE17
1547-429-SE17
1548-106-CM17
1548-127-SE17
1548-128-SE17
1549-539-CM17
1549-564-SE17
1549-571-CM17
1549-593-CM17
1549-594-CM17
1552-150-SE17
1552-80-SE17
1552-83-SE17
1552-87-SE17
1552-90-SE17
1552-93-SE17
1552-94-SE17
1553-1453-SE17
1553-1457-SE17
1553-1462-SE17
1554-205-CM17
1554-290-SE17
1554-293-SE17
1555-220-SE17
1555-222-SE17
1556-27-SE17
1559-656-SE17
1559-660-SE17
1559-663-SE17
1561-34-CM17
1562-148-CM17
1571-232-CM17
1571-244-CM17
1572-78-CM17
1575-36-CM17
1576-85-CM17
1588-72-CM17
1590-69-SE17
1592-41-CM17
1593-79-SE17
1596-90-SE17
1602-16-CM17
1604-15-CM17
1004-22-SE17
1024-24-CM17
1028-60-SE17
1028-73-SE17
1028-868-SE16
1036-77-SE17
1037-44-SE17
1039-215-CM17
1048-540-CM16
1092-47-SE17
1106-52-SE17
1106-54-SE17
1128-36-SE17
1155-427-CM17
1155-438-SE17
1155-441-CM17
1155-447-CM17
1156-149-SE17
1156-153-SE17
1156-154-SE17
1156-155-SE17
1158-41-CM17
1158-46-CM17
1158-47-SE17
1159-24-CM17
1161-100-SE17
1161-99-CM17
1175-235-SE17
1176-42-SE17
1176-44-SE17
1198-65-CM17
1198-66-CM17
1198-8-CM17
1236-20-CM17
1256-12-CM17
1262-3-SE17
1269-14-SE17
1280-6-CM17
1288-111-CM17
1288-118-CM17
1288-129-CM17
1310-4-CM17
1310-5-CM17
1322-4-CM17
1340-59-SE17
1340-60-SE17
1360-45-CM17
1370-76-SE17
1370-94-SE17
1370-95-SE17
1373-173-CM17
1380-1480-SE17
1380-1496-SE17
1380-1497-SE17
1380-1530-CM17
1380-1582-CM17
1380-1586-SE17
1380-1595-SE17
1380-1596-SE17
1380-1597-SE17
1380-1601-SE17
1380-1606-SE17
1019-31-SE17
1019-93-SE17
1024-26-CM17
1028-75-SE17
1036-40-SE17
1037-47-SE17
1038-132-SE17
1039-217-CM17
1048-107-SE17
1088-30-SE17
1088-31-CM17
1092-91-CM17
1128-35-SE17
1155-432-CM17
1155-448-SE17
1155-449-SE17
1159-26-CM17
1197-34-CM17
1197-36-CM17
1198-9-CM17
1199-603-CM16
1199-75-SE17
1200-71-CM17
1200-78-CM17
1200-799-CM16
1213-1099-CM16
1230-25-CM17
1232-20-CM17
1269-10-SE17
1269-1-CM17
1269-8-SE17
1288-114-CM17
1288-73-CM17
1288-90-CM17
1324-26-CM17
1340-61-SE17
1348-21-SE17
1355-7-CM17
1358-6-CM17
1368-29-CM17
1371-18-CM17
1373-158-SE17
1380-1132-SE17
1380-1618-SE17
1380-1621-SE17
1380-1628-SE17
1380-1632-CM17
1380-1642-SE17
1380-1650-SE17
1380-1651-SE17
1380-1653-SE17
1380-1657-SE17
1380-1665-SE17
1380-1672-CM17
1380-1678-SE17
1380-1679-SE17
1380-1684-CM17
1382-286-CM17
1382-287-CM17
1382-290-SE17
1391-1017-CM17
1391-1022-CM17
1604-26-CM17
1604-27-CM17
1609-60-SE17
1609-66-CM17
1618-61-CM17
1624-74-SE17
1625-292-CM17
1626-22-CM17
1626-35-SE17
1626-40-SE17
1627-795-SE17
1627-798-SE17
1627-835-SE17
1627-838-SE17
1627-840-SE17
1632-843-SE17
1632-886-CM17
1632-897-SE17
1632-946-SE17
1636-346-SE17
1636-351-SE17
1636-355-SE17
1636-357-CM17
1641-1145-SE17
1641-1242-SE17
1641-1281-CM17
1641-1287-CM17
1641-1316-SE17
1641-1496-SE17
1641-1510-CM17
1641-1513-SE17
1641-1518-CM17
1641-1529-SE17
1641-1533-SE17
1641-1535-SE17
1641-1538-SE17
1641-661-SE17
1642-91-CM17
1643-287-CM17
1643-315-SE17
1643-320-SE17
1643-323-SE17
1643-332-SE17
1643-334-SE17
1643-341-SE17
1643-343-SE17
1647-1661-SE17
1647-1668-SE17
1647-1704-CM17
1647-1712-CM17
1647-1714-CM17
1655-36-CM17
1658-268-CM17
1658-280-CM17
1658-284-CM17
1658-333-SE17
1658-351-CM17
1660-851-SE16
1662-118-SE17
1662-163-SE17
1665-68-SE17
1667-96-SE17
1669-272-SE17
1380-1609-SE17
1380-1614-SE17
1380-1615-SE17
1380-1616-SE17
1380-1620-SE17
1380-1625-SE17
1380-1634-SE17
1380-1635-SE17
1380-1639-SE17
1380-1641-SE17
1380-1644-CM17
1380-1645-SE17
1380-1646-CM17
1380-1647-SE17
1380-1661-SE17
1380-1662-SE17
1380-1674-SE17
1380-1677-SE17
1380-1681-SE17
1380-681-CM17
1382-280-SE17
1382-288-SE17
1382-66-CM17
1384-143-CM17
1391-1011-CM17
1391-1032-CM17
1391-31-CM17
1391-643-SE17
1391-8648-CM16
1391-985-CM17
1391-990-CM17
1395-113-SE17
1396-308-SE17
1398-164-CM17
1398-178-CM17
1402-223-CM17
1403-316-SE17
1407-131-CM17
1407-142-CM17
1410-223-SE17
1410-228-CM17
1410-229-CM17
1410-96-SE17
1411-1098-CM17
1411-1109-CM17
1411-1110-CM17
1411-1113-CM17
1411-1116-CM17
1434-67-CM17
1442-14-CM17
1448-19-SE17
1462-31-CM17
1464-155-SE17
1464-183-CM17
1487-10-CM17
1488-146-SE17
1488-186-SE17
1491-18-CM17
1493-121-SE17
1495-87-CM17
1391-1024-SE17
1391-426-SE17
1391-4876-SE16
1391-567-SE17
1391-825-CM17
1391-8461-SE16
1391-9557-CM16
1391-9676-CM16
1391-9753-CM16
1393-49-SE17
1393-97-CM17
1395-1215-SE16
1398-150-CM17
1398-158-CM17
1398-159-CM17
1398-166-CM17
1398-172-CM17
1398-176-CM17
1398-181-CM17
1398-182-CM17
1398-186-CM17
1398-187-SE17
1403-307-CM17
1403-308-SE17
1403-315-SE17
1407-141-CM17
1411-1104-SE17
1411-1107-CM17
1411-1108-CM17
1411-1119-CM17
1411-789-CM17
1411-826-CM17
1413-318-CM17
1421-85-SE17
1421-90-CM17
1422-36-SE17
1449-18-CM17
1454-199-SE17
1459-11-CM17
1459-14-CM17
1464-158-SE17
1464-184-CM17
1495-93-CM17
1498-167-SE17
1498-173-SE17
1499-1003-SE17
1499-1007-SE17
1499-1023-CM17
1499-989-CM17
1503-24-CM17
1506-28-SE17
1506-29-SE17
1506-35-SE17
1511-1045-SE16
1511-1080-SE16
1511-1083-SE16
1511-1086-SE16
1669-839-CM17
1669-846-CM17
1669-870-SE17
1671-53-SE17
1676-802-CM17
1676-896-SE17
1676-910-SE17
1676-915-CM17
1676-916-SE17
1677-173-CM17
1677-195-SE17
1682-288-SE17
1682-290-SE17
1682-293-SE17
1682-295-SE17
1682-301-SE17
1682-303-CM17
1682-309-CM17
1682-339-SE17
1691-359-SE17
1691-410-CM17
1691-416-SE17
1700-24-SE17
1702-249-SE17
1703-85-CM17
1704-780-CM17
1704-785-SE17
1704-829-SE17
1704-833-CM17
1704-834-SE17
1704-846-SE17
1723-226-SE17
1723-230-SE17
1723-231-SE17
1725-312-CM17
1725-313-CM17
1725-316-CM17
1725-317-CM17
1736-677-SE17
1736-810-SE17
1736-839-SE17
1736-859-SE17
1736-862-SE17
1736-865-SE17
1736-872-SE17
1736-877-SE17
1736-879-SE17
1738-88-SE17
1738-90-SE17
1741-72-CM17
1743-77-SE17
1750-180-CM17
1750-199-CM17
1754-87-SE17
1769-207-CM17
1806-4-CM17
1812-150-CM17
1812-155-CM17
1812-156-CM17
1820-90-CM17
1822-83-CM17
1823-44-CM17
1823-46-CM17
1823-49-CM17
1824-83-SE17
1495-91-SE17
1495-94-SE17
1498-171-SE17
1498-172-SE17
1499-1001-CM17
1499-1015-SE17
1499-1022-SE17
1499-1024-CM17
1499-1028-CM17
1499-959-SE17
1499-964-SE17
1499-982-CM17
1499-994-SE17
1499-997-CM17
1501-3-CM17
1506-31-SE17
1506-33-SE17
1511-1017-SE16
1511-1059-SE16
1511-1071-SE16
1511-1072-SE16
1511-1082-SE16
1511-1095-CM16
1511-1215-SE16
1511-1256-SE16
1511-1303-SE16
1511-1361-SE16
1511-1443-SE16
1511-14-SE17
1511-1506-CM16
1511-1554-SE16
1511-1564-SE16
1511-1572-SE16
1511-6-SE17
1511-80-SE17
1514-461-SE17
1514-473-SE17
1514-477-SE17
1514-481-SE17
1514-496-CM17
1514-554-SE17
1514-555-SE17
1514-556-SE17
1514-577-SE17
1514-585-CM17
1514-614-SE17
1514-616-SE17
1514-617-SE17
1514-618-SE17
1515-18-CM17
1515-20-CM17
1523-309-SE17
1511-1162-SE16
1511-1197-SE16
1511-1296-SE16
1511-1297-SE16
1511-1299-SE16
1511-1330-CM16
1511-141-SE17
1511-1435-SE16
1511-1437-SE16
1511-144-SE17
1511-146-SE17
1511-149-SE17
1511-1561-SE16
1511-1563-SE16
1511-1568-SE16
1511-1569-SE16
1511-19-SE17
1511-7-SE17
1514-451-CM17
1514-458-SE17
1514-475-SE17
1514-478-SE17
1514-479-SE17
1514-480-SE17
1514-482-SE17
1514-521-SE17
1514-542-SE17
1514-583-SE17
1514-588-SE17
1514-599-SE17
1514-615-SE17
1514-652-SE17
1520-196-CM17
1520-216-SE17
1523-289-CM17
1523-307-SE17
1523-321-SE17
1524-211-CM17
1524-234-CM17
1524-246-SE17
1524-266-CM17
1524-268-CM17
1527-107-CM17
1527-108-CM17
1536-14-CM17
1541-280-CM17
1541-728-SE17
1541-829-SE17
1541-831-SE17
1541-885-SE17
1826-72-CM17
1831-47-CM17
1833-58-CM17
1833-60-CM17
1849-7-CM17
1871-5-CM17
1883-14-CM17
1943-33-CM17
1943-47-CM17
1947-425-CM17
1947-483-CM17
1947-608-SE17
1947-609-SE17
1952-303-SE17
1952-326-SE17
1952-348-CM17
1952-356-SE17
1952-369-CM17
1952-371-SE17
1953-1067-CM17
1953-1083-CM17
1953-1090-CM17
1953-1099-CM17
1959-633-SE17
1959-635-SE17
1959-653-SE17
1959-660-SE17
1965-187-CM17
1965-188-SE17
1965-191-CM17
1968-317-SE17
1968-328-SE17
1968-726-SE17
1968-803-CM17
1968-809-CM17
1968-878-CM17
1968-879-CM17
1968-914-SE17
1968-923-CM17
1968-927-CM17
1969-564-SE17
1969-751-CM17
1969-752-CM17
1969-801-CM17
1969-912-CM17
1969-922-CM17
1969-946-CM17
1969-950-CM17
1969-964-CM17
1523-311-CM17
1524-131-CM17
1524-227-CM17
1524-270-CM17
1527-118-CM17
1527-119-CM17
1527-877-CM16
1532-149-CM17
1541-694-SE17
1541-730-CM17
1541-830-SE17
1541-834-SE17
1541-849-SE17
1541-852-CM17
1541-872-SE17
1541-874-SE17
1541-876-SE17
1541-879-SE17
1545-1100-CM17
1545-1123-SE17
1545-1128-SE17
1545-1130-SE17
1545-1135-SE17
1545-1141-SE17
1545-1144-SE17
1545-1150-SE17
1545-1151-SE17
1545-1156-SE17
1545-1163-SE17
1545-1167-SE17
1545-1173-SE17
1545-530-SE17
1547-425-SE17
1548-126-SE17
1548-129-SE17
1548-130-SE17
1549-524-CM17
1549-527-CM17
1549-528-CM17
1549-529-CM17
1549-568-CM17
1549-570-CM17
1549-575-SE17
1549-578-SE17
1549-586-CM17
1549-591-SE17
1549-592-CM17
1552-81-SE17
1552-92-SE17
1553-1463-SE17
1554-295-SE17
1554-296-SE17
1554-297-CM17
1555-201-SE17
1555-218-SE17
1555-225-SE17
1559-564-SE17
1559-651-CM17
1559-657-CM17
1559-661-SE17
1559-668-SE17
1559-671-SE17
1571-252-CM17
1572-49-CM17
1576-92-CM17
1577-52-SE17
1545-1139-SE17
1545-1142-SE17
1545-1146-SE17
1545-1153-SE17
1545-1154-SE17
1545-1162-SE17
1545-904-SE17
1547-409-CM17
1547-419-CM17
1547-430-SE17
1548-131-CM17
1549-505-CM17
1549-523-CM17
1549-525-CM17
1549-556-CM17
1549-574-SE17
1549-577-SE17
1549-588-SE17
1549-589-CM17
1550-12-CM17
1552-151-SE17
1553-1179-SE17
1553-1354-SE17
1553-1459-SE17
1553-1460-SE17
1553-1461-SE17
1554-292-SE17
1554-294-SE17
1555-200-SE17
1555-221-SE17
1555-224-SE17
1559-304-SE17
1559-641-SE17
1559-650-SE17
1559-655-SE17
1559-659-SE17
1559-664-SE17
1562-1289-CM16
1562-147-CM17
1571-122-CM17
1576-88-CM17
1577-51-SE17
1588-69-CM17
1591-27-CM17
1591-29-CM17
1604-21-CM17
1604-28-CM17
1606-53-SE17
1609-61-SE17
1609-69-CM17
1611-106-CM17
1611-107-CM17
1611-153-CM17
1611-170-CM17
1611-78-CM17
1612-42-SE17
1620-27-SE17
1620-38-CM17
1620-39-SE17
1624-70-SE17
1625-296-CM17
1626-19-CM17
1626-37-SE17
1626-39-SE17
1969-968-CM17
1969-980-CM17
1969-990-CM17
1969-993-CM17
1973-347-SE17
1973-348-SE17
1973-352-SE17
1974-188-SE17
1975-182-SE17
1975-184-SE17
1979-332-CM17
1979-454-CM17
1979-472-SE17
1979-478-SE17
1992-95-CM17
2009-1-SE17
2015-465-SE17
2015-487-SE17
2015-515-SE17
2026-249-CM17
2026-317-CM17
2026-328-CM17
2026-344-SE17
2043-12-CM17
2058-1016-SE17
2058-1055-CM17
2058-743-SE17
2058-967-SE17
2060-2258-SE16
2060-3488-SE16
2060-3664-CM16
2060-414-SE17
2060-417-SE17
2060-426-SE17
2061-532-SE17
2065-57-CM17
2069-1061-SE17
2069-1202-SE17
2069-1224-SE17
2069-1226-SE17
2069-1446-SE17
2069-1460-SE17
2069-1577-SE17
2069-1666-SE17
2069-1721-SE17
2069-1782-CM17
2069-1783-CM17
2073-100-CM17
2073-85-SE17
2073-95-CM17
2078-165-CM17
2078-247-SE17
2080-1064-CM17
2080-11237-SE16
2080-796-SE17
2080-850-SE17
2080-867-SE17
2080-890-SE17
2080-898-CM17
2080-947-SE17
2084-112-SE17
2084-99-SE17
2085-127-CM17
2085-129-CM17
2088-68-CM17
2097-254-CM17
1577-53-SE17
1588-81-CM17
1593-78-SE17
1596-92-SE17
1604-29-CM17
1605-73-CM17
1607-52-CM17
1607-53-CM17
1611-108-CM17
1612-50-SE17
1614-48-CM17
1620-41-CM17
1622-283-CM17
1626-25-CM17
1626-28-SE17
1627-813-SE17
1627-831-SE17
1627-832-SE17
1627-833-SE17
1627-839-SE17
1628-53-CM17
1632-1054-CM17
1632-1059-SE17
1632-794-SE17
1632-811-SE17
1632-894-SE17
1632-895-SE17
1636-350-SE17
1636-352-SE17
1638-92-SE17
1640-187-CM17
1641-1146-SE17
1641-1269-CM17
1641-1270-CM17
1641-1279-CM17
1641-1283-CM17
1641-1338-SE17
1641-1420-SE17
1641-1494-SE17
1641-1509-SE17
1641-1511-SE17
1641-1512-SE17
1641-1517-SE17
1641-1519-SE17
1641-1526-SE17
1641-1528-CM17
1642-87-CM17
1643-310-SE17
1643-321-SE17
1643-324-SE17
1643-327-SE17
1643-329-SE17
1647-1628-SE17
1647-1630-SE17
1647-1664-SE17
1647-1674-SE17
1647-1688-SE17
1647-1694-SE17
1647-1696-CM17
1647-1707-CM17
1647-1713-CM17
1647-1719-CM17
1647-1720-CM17
1658-299-CM17
1658-301-CM17
2097-259-CM17
2098-309-SE17
2098-310-SE17
2098-317-SE17
2098-321-SE17
2099-88-SE17
2101-75-CM17
2104-300-CM17
2104-351-SE17
2104-361-SE17
2104-437-CM17
2105-1045-SE17
2105-1070-SE17
2105-1072-SE17
2105-1073-SE17
2105-1076-SE17
2105-1083-SE17
2105-1106-SE17
2105-1107-SE17
2105-1108-SE17
2105-1126-SE17
2105-1149-CM17
2105-1153-CM17
2105-1154-CM17
2105-1204-SE17
2105-861-SE17
2105-947-SE17
2105-961-SE17
2105-995-SE17
2107-202-SE17
2107-204-CM17
2109-311-SE17
2109-378-SE17
2109-383-SE17
2110-157-SE17
2110-158-SE17
2111-475-CM17
2111-575-SE17
2111-578-SE17
2111-579-SE17
2111-584-SE17
2111-590-CM17
2111-592-SE17
2111-593-SE17
2111-595-SE17
2111-597-SE17
2113-140-SE17
2115-103-CM17
2115-110-CM17
2115-114-SE17
2115-117-CM17
2115-120-CM17
2115-121-CM17
2115-125-CM17
2116-89-CM17
2116-91-CM17
2120-189-SE17
2120-420-SE17
2120-535-CM17
2120-617-SE17
2120-621-SE17
2123-195-CM17
2123-203-CM17
2123-205-CM17
2125-205-SE17
2125-238-SE17
2126-1002-SE17
2126-1003-SE17
1626-42-SE17
1626-43-SE17
1626-44-SE17
1626-47-SE17
1627-815-SE17
1627-841-CM17
1632-856-SE17
1632-891-SE17
1632-893-SE17
1632-896-SE17
1636-349-CM17
1636-361-CM17
1640-185-SE17
1640-186-CM17
1641-1071-SE17
1641-1259-CM17
1641-1427-SE17
1641-1489-SE17
1641-1501-SE17
1641-1505-SE17
1641-1516-CM17
1641-1521-SE17
1642-86-CM17
1642-92-CM17
1643-316-SE17
1643-318-SE17
1643-322-SE17
1643-328-SE17
1643-333-SE17
1643-337-SE17
1647-1633-SE17
1647-1638-SE17
1647-1698-SE17
1647-1700-SE17
1647-1706-CM17
1647-1708-CM17
1647-1715-CM17
1647-1717-CM17
1655-26-CM17
1655-38-CM17
1658-241-SE17
1658-252-SE17
1658-297-CM17
1658-313-SE17
1658-356-SE17
1660-30-CM17
1660-78-CM17
1660-79-CM17
1662-144-CM17
1662-159-SE17
1663-164-SE17
1664-139-CM17
1665-56-SE17
1669-276-SE17
1669-812-SE17
1669-864-SE17
1676-877-SE17
1676-902-SE17
1676-904-SE17
1676-906-SE17
1676-909-SE17
1677-192-CM17
1677-193-SE17
1681-139-SE17
1681-145-SE17
1681-146-SE17
1681-148-SE17
1682-202-SE17
1682-278-SE17
1682-291-SE17
1682-294-SE17
1682-306-SE17
1682-310-SE17
1682-314-SE17
1684-24-CM17
1685-40-SE17
1691-402-SE17
1691-415-SE17
1691-424-SE17
1702-218-CM17
1702-219-CM17
1702-222-CM17
1703-89-SE17
1704-574-CM17
1704-579-CM17
1704-765-SE17
1704-836-SE17
1704-845-CM17
1705-170-CM17
1719-37-SE17
1723-185-SE17
1723-225-SE17
1723-228-SE17
1723-229-SE17
1725-303-CM17
1725-310-CM17
1725-311-CM17
1725-314-CM17
1725-315-CM17
1725-319-CM17
1736-283-CM17
1736-799-SE17
1736-856-SE17
1736-858-SE17
1736-874-SE17
1738-91-SE17
1738-92-SE17
1741-71-SE17
1743-65-CM17
1746-21-CM17
1747-49-SE17
1750-203-CM17
1750-205-CM17
1754-88-SE17
1754-90-SE17
1754-93-SE17
1761-146-SE17
1761-147-CM17
1769-180-CM17
1769-202-SE17
1769-205-CM17
1774-24-SE17
1808-2-SE17
1810-54-CM17
1812-144-CM17
1812-153-CM17
1817-73-CM17
1820-88-CM17
1822-77-CM17
1822-81-CM17
1822-85-CM17
1823-50-CM17
1823-51-CM17
2126-1004-SE17
2126-1033-CM17
2126-1034-CM17
2126-1035-CM17
2126-1044-CM17
2126-1046-CM17
2126-1050-SE17
2126-1061-SE17
2126-1068-CM17
2126-1072-CM17
2126-1077-CM17
2126-1080-CM17
2126-1081-CM17
2126-1085-SE17
2126-724-SE17
2126-870-SE17
2126-877-SE17
2126-914-SE17
2126-934-CM17
2128-1004-SE17
2128-1100-SE17
2128-1108-CM17
2128-1143-CM17
2128-725-SE17
2128-776-SE17
2128-902-SE17
2129-110-SE17
2130-1097-SE17
2130-1099-SE17
2130-1104-CM17
2130-1106-SE17
2130-1108-SE17
2130-1123-SE17
2130-1129-SE17
2130-1133-CM17
2133-280-SE17
2133-282-CM17
2133-289-CM17
2133-290-SE17
2137-64-CM17
2138-86-CM17
2138-95-SE17
2142-611-CM17
2142-679-CM17
2142-714-SE17
2142-737-SE17
2142-742-CM17
2142-747-SE17
2142-749-SE17
2142-751-CM17
2146-10-SE17
2146-631-SE16
2146-6-SE17
2147-12-CM17
2157-18-SE17
2157-330-SE17
2157-371-CM17
2164-337-CM17
2164-352-CM17
1823-52-CM17
1824-85-CM17
1824-87-SE17
1830-74-CM17
1833-57-CM17
1841-15-SE17
1842-7-CM17
1891-6-CM17
1898-36-CM17
1898-37-CM17
1947-279-SE17
1947-543-CM17
1947-554-CM17
1947-596-CM17
1947-610-CM17
1947-612-SE17
1947-617-SE17
1947-622-CM17
1947-623-CM17
1947-627-SE17
1947-634-SE17
1950-316-CM17
1950-322-SE17
1951-62-CM17
1951-64-SE17
1952-123-SE17
1952-388-CM17
1953-1003-CM17
1953-1053-CM17
1953-1064-CM17
1953-1082-CM17
1953-1086-CM17
1953-1094-CM17
1953-1097-CM17
1953-1106-SE17
1953-511-CM17
1959-641-SE17
1959-650-SE17
1959-651-SE17
1959-656-SE17
1959-658-SE17
1960-45-CM17
1962-100-CM17
1962-92-CM17
1963-988-CM16
1965-172-SE17
1965-190-CM17
1968-192-CM17
1968-304-SE17
1968-327-CM17
1968-332-SE17
1968-397-CM17
1968-406-CM17
1968-408-SE17
1658-320-SE17
1658-327-CM17
1658-341-SE17
1658-357-CM17
1658-361-SE17
1658-363-SE17
1659-21-SE17
1660-81-SE17
1662-143-CM17
1662-161-SE17
1662-164-SE17
1663-162-SE17
1663-165-SE17
1663-166-SE17
1664-140-CM17
1669-833-CM17
1669-849-CM17
1669-851-CM17
1669-853-CM17
1670-68-SE17
1671-49-SE17
1676-894-SE17
1676-901-SE17
1676-907-CM17
1677-147-CM17
1677-150-CM17
1677-184-CM17
1681-138-SE17
1681-142-SE17
1681-147-SE17
1682-2128-SE16
1682-277-SE17
1682-279-SE17
1682-283-SE17
1682-292-SE17
1682-297-SE17
1682-304-CM17
1682-307-SE17
1682-311-SE17
1684-25-CM17
1684-26-SE17
1691-407-SE17
1691-411-SE17
1691-425-SE17
1691-426-SE17
1691-430-SE17
1692-62-SE17
1702-233-SE17
1702-234-SE17
1702-251-SE17
1703-80-CM17
1703-84-CM17
1704-816-CM17
1704-839-CM17
1704-848-CM17
1705-187-SE17
1718-149-CM17
1718-151-CM17
1718-168-CM17
1718-173-CM17
1723-223-SE17
1733-40-CM17
1736-470-CM17
1736-853-SE17
1736-854-CM17
1736-860-SE17
1968-415-CM17
1968-648-SE17
1968-652-SE17
1968-681-CM17
1968-724-CM17
1968-755-CM17
1968-756-CM17
1968-852-CM17
1968-904-CM17
1968-920-CM17
1969-957-CM17
1969-966-CM17
1969-971-CM17
1969-976-CM17
1969-984-CM17
1969-986-CM17
1969-988-CM17
1969-991-CM17
1973-342-SE17
1973-343-SE17
1973-349-SE17
1973-356-SE17
1974-193-SE17
1975-183-SE17
1979-470-SE17
1992-94-CM17
2009-5-SE17
2015-430-SE17
2015-472-SE17
2015-509-SE17
2015-510-SE17
2015-513-SE17
2021-132-CM17
2025-19-SE17
2026-316-CM17
2026-350-CM17
2036-127-SE17
2036-144-SE17
2036-146-SE17
2038-10-CM17
2045-41-SE17
2046-52-CM17
2048-379-SE17
2058-1015-SE17
2058-1027-CM17
2058-1041-CM17
2058-1051-CM17
2058-1056-SE17
2058-695-SE17
2058-969-SE17
2058-983-SE17
2060-36-SE17
2060-409-SE17
2060-411-SE17
2060-412-SE17
2061-110-SE17
2061-280-SE17
2061-3202-SE16
2061-566-SE17
2061-570-SE17
2061-572-SE17
2065-31-CM17
2066-64-CM17
2069-1239-SE17
2069-1511-SE17
2069-1514-SE17
2069-1620-CM17
2069-1722-SE17
2069-1780-CM17
2069-1834-SE17
2073-66-CM17
2073-96-CM17
2073-97-CM17
2078-163-CM17
2078-187-CM17
2078-245-SE17
2080-1001-CM17
2080-1046-SE17
2080-1078-CM17
2080-11398-SE16
2080-864-SE17
2080-865-SE17
2080-884-SE17
2080-886-SE17
2080-887-SE17
2080-893-SE17
2080-896-CM17
2080-948-SE17
2080-949-SE17
2080-960-CM17
2080-963-SE17
2080-979-CM17
2080-999-CM17
2085-131-SE17
2086-112-SE17
2086-1416-SE16
2089-103-CM17
2089-89-CM17
2097-204-SE17
2098-263-SE16
2098-264-CM17
2098-308-SE17
2098-320-SE17
2099-84-SE17
2101-174-CM17
2103-71-SE17
2103-76-SE17
2103-86-SE17
2104-273-SE17
2104-327-CM17
2104-328-CM17
2104-341-SE17
2104-344-SE17
2104-348-SE17
2104-357-SE17
1736-868-SE17
1736-869-SE17
1736-871-SE17
1736-881-SE17
1741-106-SE17
1746-35-SE17
1750-171-CM17
1750-197-CM17
1751-11-CM17
1754-91-SE17
1754-96-SE17
1769-209-SE17
1778-39-CM17
1822-79-CM17
1823-34-CM17
1823-43-CM17
1823-45-CM17
1823-48-CM17
1824-88-CM17
1833-56-CM17
1833-61-CM17
1836-11-SE17
1836-12-CM17
1849-6-CM17
1849-9-CM17
1859-27-CM17
1876-24-CM17
1884-7-CM17
1895-51-SE17
1947-497-SE17
1947-615-CM17
1947-618-SE17
1947-628-CM17
1950-295-CM17
1951-59-CM17
1951-63-CM17
1952-339-CM17
1952-383-SE17
1953-1084-CM17
1953-1088-CM17
1953-1095-CM17
1953-1098-CM17
1953-1104-CM17
1953-1105-SE17
1953-608-CM17
1959-394-SE17
1959-495-CM17
1959-657-SE17
1963-61-SE17
1968-190-CM17
1968-373-CM17
1968-376-CM17
1968-414-SE17
1968-703-CM17
1968-713-CM17
1968-823-CM17
2104-364-SE17
2104-367-SE17
2104-370-SE17
2105-1007-SE17
2105-1023-SE17
2105-1032-SE17
2105-1060-SE17
2105-1065-SE17
2105-1077-SE17
2105-1097-SE17
2105-1110-SE17
2105-1112-SE17
2105-1135-SE17
2105-1140-SE17
2105-1144-SE17
2105-1148-CM17
2105-1152-CM17
2105-1156-SE17
2105-732-SE17
2105-859-SE17
2105-870-SE17
2105-8724-SE16
2105-930-SE17
2105-952-SE17
2105-970-SE17
2105-982-SE17
2105-993-SE17
2107-185-CM17
2107-198-SE17
2110-159-SE17
2111-485-SE17
2111-489-CM17
2111-519-SE17
2111-581-SE17
2111-596-SE17
2113-142-CM17
2113-143-CM17
2116-93-CM17
2116-94-CM17
2120-348-SE17
2120-465-CM17
2120-518-SE17
2120-5362-SE16
2123-192-SE17
2123-206-CM17
2123-208-CM17
2123-211-CM17
2126-1001-SE17
2126-1005-SE17
2126-1036-SE17
2126-1043-CM17
2126-1062-CM17
2126-1063-CM17
2126-1065-CM17
2126-1086-CM17
2126-1093-SE17
2126-927-SE17
2126-932-SE17
2126-949-CM17
2128-1102-SE17
2128-1124-SE17
2128-1125-SE17
2128-1144-SE17
1968-838-CM17
1968-876-CM17
1968-910-CM17
1968-921-CM17
1969-940-CM17
1969-953-SE17
1969-961-CM17
1969-962-CM17
1969-967-CM17
1969-972-CM17
1973-344-SE17
1973-346-SE17
1973-351-SE17
1973-353-SE17
1973-354-SE17
1976-423-CM16
1979-473-CM17
1979-475-CM17
1979-480-SE17
1987-27-SE17
1992-93-CM17
2005-3-SE17
2015-403-SE17
2015-512-SE17
2015-516-SE17
2015-519-SE17
2020-42-CM17
2020-44-CM17
2021-131-CM17
2026-318-CM17
2026-333-CM17
2026-342-SE17
2026-347-CM17
2036-138-CM17
2036-142-CM17
2048-401-SE17
2058-1020-CM17
2058-1042-SE17
2058-1046-CM17
2058-1054-CM17
2058-1059-SE17
2058-737-SE17
2058-942-SE17
2058-987-SE17
2060-1964-SE16
2060-2490-SE16
2060-2971-SE16
2060-3206-SE16
2060-410-SE17
2061-568-SE17
2065-63-SE17
2066-66-SE17
2067-45-SE17
2068-25-SE17
2069-1250-SE17
2069-1291-SE17
2069-1501-SE17
2069-1503-SE17
2069-1509-SE17
2069-1597-CM17
2165-1183-SE17
2165-1188-SE17
2165-1192-SE17
2165-1193-SE17
2165-528-SE17
2165-894-SE17
2170-139-SE17
2171-87-CM17
2171-90-CM17
2174-17-SE17
2180-12-CM17
218-127-CM17
2184-36-CM17
2184-38-CM17
2186-152-SE17
2199-105-CM17
2199-106-CM17
2199-109-CM17
2199-111-SE17
2201-102-CM17
2201-109-CM17
2201-91-CM17
2201-94-CM17
2201-97-CM17
2202-118-SE17
2202-128-CM17
2204-212-SE17
2204-217-SE17
2207-99-SE17
2211-64-CM17
2215-376-CM17
2252-1105-SE17
2258-1024-SE17
2258-1032-SE17
2258-1045-CM17
2258-1067-CM17
2258-1069-CM17
2258-1075-SE17
2258-1078-SE17
2258-1080-CM17
2258-1086-CM17
2258-728-SE17
2258-809-SE17
2258-940-SE17
2268-59-SE17
2273-172-CM17
2273-240-SE17
2275-46-SE17
2279-113-SE17
2279-118-SE17
2279-142-CM17
2279-23-CM17
2279-3609-CM16
2279-3713-CM16
2279-3795-CM16
2279-97-CM17
2280-267-CM17
2280-282-CM17
2280-294-CM17
2280-305-CM17
2128-1155-SE17
2128-1157-SE17
2128-1164-SE17
2128-1169-CM17
2128-710-SE17
2128-722-SE17
2128-781-SE17
2129-108-SE17
2130-1067-SE17
2130-1102-SE17
2130-1103-SE17
2130-1109-SE17
2130-1110-SE17
2130-1112-SE17
2130-1116-SE17
2130-1117-SE17
2130-1118-SE17
2130-1120-SE17
2130-1134-SE17
2132-18-CM17
2133-283-CM17
2133-285-SE17
2133-292-SE17
2137-60-SE17
2139-114-SE17
2142-542-CM17
2142-677-CM17
2142-740-CM17
2142-741-CM17
2142-745-CM17
2142-754-SE17
2146-65-SE17
2147-10-CM17
2147-17-SE17
2150-125-SE17
2153-127-SE17
2153-133-CM17
2153-39-SE17
2155-36-SE17
2157-368-SE17
2157-375-SE17
2164-378-SE17
2165-1186-SE17
2165-1190-SE17
2165-1194-SE17
2165-1196-CM17
2171-91-CM17
2175-11-CM17
2175-30-SE17
2179-48-CM17
2184-37-CM17
2186-150-CM17
2192-60-SE17
2198-275-CM17
2201-96-CM17
2204-193-CM17
2204-218-SE17
2207-100-SE17
2207-84-SE17
2207-90-SE17
2207-93-SE17
2069-1617-SE17
2069-1644-CM17
2069-1646-CM17
2069-1795-SE17
2069-1806-SE17
2069-1812-CM17
2069-1896-SE17
2069-322-SE17
2073-30-SE17
2073-93-CM17
2078-2344-CM16
2080-1034-SE17
2080-1060-CM17
2080-799-SE17
2080-888-SE17
2080-891-SE17
2080-961-SE17
2080-978-SE17
2082-9-SE17
2085-132-SE17
2089-105-CM17
2096-171-CM17
