2097-238-SE17
2098-1741-SE16
2098-222-SE17
2098-300-SE17
2098-311-SE17
2098-312-SE17
2098-316-SE17
2098-319-SE17
2104-235-CM17
2104-258-CM17
2104-333-CM17
2104-415-CM17
2105-1017-SE17
2105-1022-SE17
2105-1029-SE17
2105-1059-SE17
2105-1062-SE17
2105-1067-SE17
2105-1071-SE17
2105-1074-SE17
2105-1102-SE17
2105-1105-SE17
2105-1116-SE17
2105-1137-SE17
2105-1145-SE17
2105-1150-CM17
2105-259-SE17
2105-481-SE17
2105-821-SE17
2105-862-SE17
2105-929-SE17
2105-933-SE17
2105-937-SE17
2105-946-SE17
2105-960-SE17
2107-203-CM17
2107-205-SE17
2109-385-SE17
2110-156-SE17
2111-3936-CM16
2111-585-SE17
2111-586-SE17
2111-587-SE17
2111-594-SE17
2207-96-SE17
2211-132-CM17
2211-133-CM17
2211-168-SE17
2211-169-SE17
2211-170-SE17
2212-89-SE17
2213-18-CM17
2215-3621-SE16
2215-380-SE17
2252-1101-SE17
2252-390-SE17
2258-1034-SE17
2258-1070-CM17
2258-1074-SE17
2258-1081-CM17
2258-1082-CM17
2258-1084-SE17
2258-1087-CM17
2258-336-SE17
2258-688-SE17
2270-72-CM17
2270-73-SE17
2273-147-CM17
2273-149-CM17
2273-239-SE17
2279-100-CM17
2279-114-SE17
2279-119-CM17
2279-248-CM17
2279-3633-SE16
2279-3711-CM16
2279-3714-CM16
2279-3716-CM16
2279-3902-CM16
2279-40-CM17
2280-268-CM17
2280-319-CM17
2281-302-CM17
2281-574-SE17
2281-580-SE17
2281-581-SE17
2281-585-CM17
2287-220-SE17
2287-262-CM17
2287-266-SE17
2288-164-SE17
2291-365-CM17
2291-514-CM17
2291-568-CM17
2292-188-SE17
2294-145-CM17
2294-154-CM17
2294-157-CM17
2297-320-SE17
2297-353-SE17
2297-358-SE17
2297-385-CM17
2298-63-CM17
229-93-SE17
229-95-SE17
2281-517-CM17
2281-582-SE17
2281-584-CM17
2287-221-SE17
2287-258-CM17
2288-160-SE17
2289-215-SE17
2291-563-CM17
2291-567-CM17
2294-148-CM17
2294-149-CM17
2294-151-CM17
2294-152-CM17
2294-153-CM17
2294-155-CM17
2297-145-SE17
2297-361-CM17
2297-388-SE17
2297-392-SE17
2298-65-CM17
2306-161-CM17
2306-165-CM17
2306-168-CM17
2306-94-CM17
2307-199-SE17
2307-287-CM17
2307-310-CM17
2307-342-CM17
2307-347-CM17
2307-348-CM17
2307-371-SE17
2316-27-CM17
2318-106-SE17
2320-17-CM17
2322-739-CM16
2324-273-CM17
2324-676-SE17
2324-693-SE17
2324-697-SE17
2324-699-SE17
2324-702-SE17
2324-704-SE17
2324-705-SE17
2324-711-SE17
2324-714-SE17
2324-726-SE17
2328-283-SE17
2333-230-CM17
2333-231-CM17
2335-59-CM17
2336-27-CM17
2341-364-CM17
2343-269-SE17
2343-282-SE17
2343-33-SE17
2306-163-CM17
2306-2514-SE16
2307-172-SE17
2307-290-SE17
2307-292-SE17
2307-294-CM17
2307-308-SE17
2307-313-CM17
2307-315-SE17
2316-51-CM17
2318-110-SE17
2322-50-CM17
2324-248-CM17
2324-634-CM17
2324-661-SE17
2324-681-SE17
2324-685-SE17
2324-686-SE17
2324-690-SE17
2324-691-SE17
2324-703-SE17
2324-708-CM17
2324-712-SE17
2324-721-SE17
2328-294-SE17
2328-297-SE17
2328-301-SE17
2328-303-SE17
2333-222-CM17
2341-362-CM17
2343-210-SE17
2343-268-SE17
2343-281-SE17
2343-284-SE17
2348-94-CM17
2348-97-CM17
2354-54-SE17
2354-56-SE17
2358-51-SE17
2360-201-SE17
2360-205-SE17
2361-372-CM17
2361-378-CM17
2361-389-CM17
2361-392-SE17
2361-398-SE17
2361-399-SE17
2361-401-SE17
2366-106-SE17
2366-110-SE17
2366-112-SE17
2366-114-SE17
2366-115-SE17
2371-1071-SE16
2371-1141-CM16
2115-107-CM17
2115-108-CM17
2115-111-CM17
2115-115-CM17
2115-116-CM17
2116-88-SE17
2116-90-SE17
2120-446-SE17
2120-467-CM17
2120-506-SE17
2120-532-SE17
2120-612-SE17
2123-188-SE17
2123-207-CM17
2123-212-SE17
2125-199-CM17
2125-253-SE17
2126-1000-SE17
2126-1067-CM17
2126-1069-CM17
2126-1071-CM17
2126-1073-CM17
2126-1089-SE17
2126-304-SE17
2126-961-SE17
2127-10-CM17
2128-1080-SE17
2128-1117-SE17
2128-1147-SE17
2128-1152-SE17
2128-1162-SE17
2128-1165-SE17
2128-1166-SE17
2128-778-SE17
2128-789-SE17
2130-1096-SE17
2130-1107-CM17
2130-1125-SE17
2130-1126-SE17
2130-1132-CM17
2133-274-SE17
2133-287-CM17
2136-82-CM17
2137-65-CM17
2138-93-SE17
2138-94-CM17
2139-113-SE17
2142-582-CM17
2142-713-SE17
2142-744-SE17
2142-746-SE17
2142-748-SE17
2146-536-SE16
2153-130-SE17
2157-366-CM17
2157-370-CM17
2157-372-SE17
2157-374-SE17
2165-1187-SE17
2165-1191-SE17
2165-1197-SE17
2165-1198-SE17
2170-140-SE17
2170-148-SE17
2171-48-CM17
2371-46-CM17
2374-31-SE17
2374-56-SE17
2375-113-CM17
2376-66-CM17
2376-69-CM17
2376-71-CM17
2376-73-CM17
2376-74-CM17
2377-159-SE17
2377-161-SE17
2380-132-CM17
2380-189-CM17
2381-131-SE17
2382-112-CM17
2384-10-SE17
2384-11-SE17
2384-12-SE17
2387-187-CM17
2387-188-SE17
2387-189-SE17
2387-190-CM17
2387-191-CM17
2387-315-SE16
2393-110-CM17
2401-155-SE17
2401-78-CM17
2403-311-CM17
2403-312-SE17
2404-328-SE17
2404-332-SE17
2404-342-SE17
2407-75-SE17
2408-103-SE17
2408-98-SE17
2409-267-CM17
2409-286-CM17
2409-292-SE17
2410-96-CM17
2412-219-SE17
2412-224-SE17
2412-227-CM17
2412-228-CM17
2416-41-CM17
2416-58-CM17
2420-183-CM17
2420-186-SE17
2420-188-SE17
2420-191-SE17
2420-192-CM17
2420-197-CM17
2421-318-SE17
2421-319-SE17
2421-347-SE17
2421-373-CM17
2421-396-CM17
2422-34-CM17
2427-196-CM17
2171-88-CM17
2175-29-SE17
2176-1-SE17
2182-21-CM17
2186-147-CM17
2188-12-CM17
2188-13-CM17
2189-77-SE17
2192-55-SE17
2192-64-SE17
2199-104-CM17
2201-93-CM17
2201-99-CM17
2204-219-CM17
2204-220-SE17
2207-42-SE17
2207-91-SE17
2207-94-SE17
2207-98-SE17
2252-1099-CM17
2252-1133-SE17
2258-1041-SE17
2258-1071-CM17
2258-1085-CM17
2258-232-SE17
2258-695-SE17
2258-929-CM17
2268-60-CM17
2273-238-SE17
2273-3087-SE16
2273-3188-SE16
2275-47-SE17
2279-102-SE17
2279-115-CM17
2279-117-SE17
2279-126-SE17
2279-171-CM17
2279-179-CM17
2279-3645-CM16
2279-3712-CM16
2279-3920-CM16
2279-61-CM17
2280-120-CM17
2281-509-CM17
2281-577-SE17
2284-214-SE17
2291-528-CM17
2291-562-SE17
2291-565-SE17
2291-569-CM17
2291-571-SE17
2292-185-SE17
2292-190-SE17
2294-150-CM17
229-437-CM16
2296-213-CM17
2297-319-SE17
2297-322-SE17
2297-362-CM17
2297-389-SE17
2297-393-SE17
2297-397-SE17
2297-84-SE17
2298-66-SE17
229-97-SE17
2306-160-CM17
2306-2439-SE16
2307-273-CM17
2307-283-SE17
2307-288-SE17
2307-291-SE17
2307-297-CM17
2307-309-CM17
2307-343-SE17
2307-344-SE17
2307-346-CM17
2307-353-CM17
2310-106-SE17
2318-107-SE17
2320-16-CM17
2322-55-CM17
2322-67-SE17
2324-584-CM17
2324-653-CM17
2324-684-CM17
2324-687-CM17
2324-689-SE17
2324-698-SE17
2324-701-SE17
2324-706-SE17
2324-717-CM17
2324-719-SE17
2324-720-CM17
2324-723-CM17
2324-728-SE17
2328-296-SE17
2328-302-SE17
2333-233-CM17
2336-2478-CM16
2336-69-CM17
2341-325-CM17
2341-361-CM17
2341-363-CM17
2343-209-SE17
2345-352-CM17
2345-61-SE17
2348-102-SE17
2348-92-CM17
2354-62-CM17
2358-61-CM17
2359-37-CM17
2360-202-SE17
2360-203-SE17
2360-204-SE17
2361-383-CM17
2343-83-CM17
2345-224-CM17
2345-375-SE17
2345-380-SE17
2348-84-SE17
2348-90-CM17
2348-95-CM17
2348-98-CM17
2348-99-CM17
2354-18-SE17
2354-46-CM17
2358-62-CM17
2360-200-SE17
2361-396-SE17
2361-397-SE17
2366-116-SE17
2371-1144-CM16
2371-1192-CM16
2374-40-SE17
2375-114-CM17
2376-67-CM17
2376-72-CM17
2377-114-SE17
2377-123-CM17
2377-128-SE17
2377-93-CM17
2380-190-SE17
2380-196-SE17
2381-126-SE17
2381-130-SE17
2381-132-SE17
2382-109-CM17
2382-110-CM17
2382-111-CM17
2384-13-SE17
2385-64-SE17
2387-184-CM17
2388-27-CM17
2395-125-SE17
2401-144-CM17
2401-146-CM17
2401-147-SE17
2401-156-SE17
2403-309-SE17
2404-308-CM17
2404-343-SE17
2407-67-CM17
2407-74-SE17
2408-99-SE17
2409-263-SE17
2409-300-SE17
2409-3117-CM16
2410-97-CM17
2412-225-SE17
2427-215-CM17
2428-193-CM17
2428-202-SE17
2428-203-CM17
2429-212-SE17
2429-218-CM17
2429-219-CM17
2429-223-CM17
2429-227-CM17
2430-64-SE17
2436-312-SE17
2436-331-CM17
2436-343-SE17
2436-345-SE17
2436-352-SE17
2445-148-CM17
2447-40-CM17
2450-247-CM17
2450-251-CM17
2451-133-CM17
2453-99-CM17
2458-31-CM17
2458-42-SE17
2460-134-CM17
2460-238-SE17
2464-161-SE17
2464-38-SE17
2464-61-CM17
2467-279-CM17
2467-285-SE17
2467-300-SE17
2467-301-SE17
2470-96-SE17
2471-268-CM17
2471-384-SE17
2471-389-SE17
2471-4538-SE16
2471-45-SE17
2471-46-SE17
2483-24-CM17
2495-191-SE17
2496-155-SE17
2502-25-SE17
2505-12-SE17
2505-13-SE17
2511-98-SE17
2546-57-CM17
2548-73-CM17
2555-72-CM17
2565-46-CM17
2565-83-SE17
2566-92-SE17
2579-18-CM17
2581-14-CM17
2585-183-CM17
2585-87-CM17
2361-386-CM17
2361-387-CM17
2361-394-SE17
2361-400-SE17
2361-404-SE17
2366-101-SE17
2366-108-SE17
2366-109-SE17
2366-117-SE17
2371-1147-CM16
2371-1148-CM16
2371-47-CM17
2371-854-CM16
2374-5-CM17
2376-68-CM17
2376-70-CM17
2380-156-CM17
2380-186-SE17
2380-188-SE17
2380-191-SE17
2380-193-SE17
2380-198-CM17
2381-124-SE17
2381-125-SE17
2381-135-SE17
2382-106-SE17
2387-185-CM17
2387-186-CM17
2388-25-CM17
2394-10-CM17
2395-122-SE17
2395-127-SE17
2401-145-CM17
2401-148-CM17
2401-150-CM17
2408-84-CM17
2408-89-SE17
2408-94-SE17
2409-194-CM17
2409-258-CM17
2410-79-CM17
2412-177-CM17
2412-223-CM17
2416-48-CM17
2420-203-CM17
2421-283-CM17
2421-299-SE17
2421-316-CM17
2421-408-SE17
2422-94-SE17
2424-101-SE17
2424-14-CM17
2424-186-CM17
2424-188-CM17
2424-262-CM17
2424-277-SE17
2429-210-SE17
2429-225-CM17
2429-229-CM17
2429-232-CM17
2429-237-CM17
2432-61-SE17
2432-63-CM17
2434-19-SE17
2416-39-CM17
2420-164-SE17
2420-177-SE17
2420-181-SE17
2420-184-SE17
2420-187-SE17
2421-330-SE17
2424-279-SE17
2427-204-CM17
2427-233-SE17
2428-138-CM17
2428-188-SE17
2428-8-CM17
2429-191-CM17
2429-217-CM17
2429-221-SE17
2429-222-CM17
2429-226-CM17
2429-231-CM17
2433-532-CM16
2433-60-CM17
2436-348-SE17
2436-349-SE17
2440-314-CM17
2446-100-SE17
2446-67-CM17
2447-1-CM17
2447-33-CM17
2450-109-SE17
2451-153-CM17
2452-292-SE17
2453-98-CM17
2458-38-SE17
2460-154-SE17
2464-163-SE17
2464-164-SE17
2464-166-SE17
2464-59-CM17
2464-76-CM17
2467-249-CM17
2467-274-SE17
2467-283-SE17
2470-108-SE17
2470-134-SE17
2471-254-CM17
2471-289-CM17
2471-386-SE17
2471-390-SE17
2471-48-SE17
2482-32-CM17
2484-126-CM17
2546-105-CM17
2546-107-SE17
2566-67-CM17
2566-78-SE17
2577-78-CM17
2595-31-CM17
2595-76-SE17
2595-80-SE17
2599-4-CM17
2609-10-CM17
2626-242-SE17
2626-243-SE17
2626-249-SE17
2626-254-SE17
2656-104-SE17
2656-124-SE17
2664-124-SE17
2665-32-CM17
2671-15-CM17
2671-17-CM17
2673-40-SE17
2674-182-CM17
2674-195-SE17
2676-80-CM17
2676-87-CM17
2676-88-CM17
2678-41-CM17
2698-15-CM17
2701-75-SE17
2702-384-SE16
2702-61-SE17
2702-91-SE17
2703-88-CM17
2708-186-CM17
2708-189-CM17
2708-1-CM17
2708-207-CM17
2708-230-CM17
2708-92-CM17
2710-250-SE17
2711-124-CM17
2711-148-CM17
2711-150-CM17
2711-160-SE17
2712-100-CM17
2712-101-CM17
2712-105-CM17
2713-147-SE17
2713-156-SE17
2713-96-CM17
2723-207-SE17
2723-214-SE17
2723-86-CM17
2727-75-CM17
2727-81-CM17
2727-82-CM17
2730-120-SE17
2734-228-CM17
2734-230-SE17
2734-250-SE17
2734-254-SE17
2734-256-CM17
2734-260-SE17
2734-277-SE17
2734-278-SE17
2734-284-SE17
2436-306-SE17
2436-324-CM17
2436-344-SE17
2436-346-SE17
2436-350-CM17
2436-356-CM17
2445-147-CM17
2446-101-SE17
2447-1234-CM16
2447-32-CM17
2447-43-CM17
2448-108-SE17
2450-240-SE17
2450-250-CM17
2451-113-CM17
2451-119-CM17
2451-131-CM17
2451-137-CM17
2451-163-CM17
2451-17-CM17
2451-190-SE17
2452-310-SE17
2452-36-CM17
2458-41-SE17
2460-221-CM17
2460-227-SE17
2464-165-SE17
2464-31-CM17
2464-85-CM17
2467-273-SE17
2467-277-CM17
2467-280-CM17
2467-284-SE17
2467-287-SE17
2471-11-SE17
2471-121-CM17
2471-156-CM17
2471-337-SE17
2471-365-SE17
2471-375-CM17
2471-381-SE17
2471-5-SE17
2482-41-CM17
2484-273-SE17
2484-274-SE17
2495-172-SE17
2495-198-SE17
2500-15-CM17
2502-23-SE17
2511-104-SE17
2511-93-SE17
2548-66-CM17
2548-67-CM17
2583-299-CM17
2583-301-CM17
2594-237-CM17
2594-254-CM17
2594-288-CM17
2595-72-CM17
2600-764-SE16
2626-246-SE17
2628-60-CM17
2629-63-SE17
2656-122-SE17
2658-270-CM17
2658-273-SE17
2658-275-SE17
2659-54-CM17
2659-794-CM16
2663-35-CM17
2664-132-SE17
2664-135-SE17
2669-26-SE17
2674-193-SE17
2676-84-CM17
2683-47-CM17
2683-62-SE17
2687-29-CM17
2688-32-CM17
2701-76-SE17
2703-102-SE17
2703-98-SE17
2708-211-CM17
2708-223-SE17
2708-229-SE17
2708-95-SE17
2709-44-SE17
2710-243-SE17
2710-32-SE17
2711-122-CM17
2711-131-CM17
2711-145-CM17
2711-146-CM17
2713-154-CM17
2715-52-CM17
2723-132-CM17
2726-73-SE17
2726-78-SE17
2727-52-SE17
2727-76-SE17
2727-79-CM17
2734-246-SE17
2734-251-SE17
2734-252-SE17
2734-255-SE17
2734-269-SE17
2734-276-SE17
2735-204-CM17
2735-205-CM17
2735-282-CM17
2734-290-SE17
2734-295-SE17
2734-296-CM17
2734-35-SE17
2735-303-CM17
2736-77-CM17
2736-79-SE17
2737-403-CM17
2737-436-SE17
2738-104-SE17
2744-95-CM17
2755-149-SE17
2755-152-SE17
2757-89-CM17
2759-58-SE17
2759-75-SE17
2762-162-SE17
2763-173-CM17
2763-211-SE17
2765-259-SE17
2765-262-SE17
2766-140-SE17
2766-187-SE17
2766-200-SE17
2773-92-CM17
2777-55-SE17
2777-57-SE17
2777-66-SE17
2777-789-SE16
2778-120-CM17
2780-66-SE17
2780-71-SE17
2780-83-SE17
2780-84-SE17
2780-85-SE17
2780-91-SE17
2783-217-CM17
2783-219-CM17
2783-220-SE17
2785-180-SE17
2786-102-CM17
2787-62-CM17
2788-241-SE17
2789-295-CM17
2792-53-CM17
2793-1538-SE16
2799-142-SE17
2799-22-SE17
2799-93-SE17
2806-71-CM17
2806-72-CM17
2827-171-SE17
2833-113-CM17
2833-114-CM17
2833-116-CM17
2833-121-CM17
2852-81-SE17
2854-114-SE17
2854-120-CM17
2859-82-CM17
2885-54-SE17
2735-326-CM17
2736-38-CM17
2736-67-CM17
2736-78-CM17
2737-437-CM17
2738-102-CM17
2738-24-CM17
2741-12-SE17
2744-90-CM17
2745-70-SE17
2755-102-CM17
2755-109-CM17
2759-73-CM17
2759-76-SE17
2759-77-SE17
2759-79-CM17
2763-179-CM17
2763-187-CM17
2763-196-CM17
2763-207-SE17
2763-215-CM17
2763-216-CM17
2769-19-SE17
2770-14-CM17
2773-93-CM17
2773-97-CM17
2774-72-SE17
2777-56-SE17
2777-58-SE17
2777-59-SE17
2777-60-SE17
2777-62-SE17
2777-65-SE17
2778-87-CM17
2780-68-SE17
2780-77-SE17
2780-78-SE17
2780-80-SE17
2780-92-SE17
2780-94-CM17
2780-95-SE17
2782-12-SE17
2783-203-SE17
2783-221-SE17
2785-185-SE17
2785-187-SE17
2786-106-CM17
2788-139-SE17
2790-108-SE17
2793-206-SE17
2795-15-SE17
2799-173-SE17
2799-56-SE17
2805-57-CM17
2806-74-CM17
2827-177-CM17
2827-180-CM17
2833-120-CM17
2852-87-SE17
2854-113-SE17
2859-7-CM17
2859-85-CM17
2886-467-CM16
2548-70-CM17
2566-68-CM17
2566-82-CM17
2575-23-CM17
2580-26-CM17
2580-27-CM17
2583-107-CM17
2583-114-SE17
2583-125-CM17
2591-64-CM17
2591-72-CM17
2594-284-SE17
2594-289-CM17
2595-37-SE17
2626-244-SE17
2626-250-SE17
2626-251-SE17
2628-46-SE17
2628-62-SE17
2656-118-CM17
2658-272-SE17
2659-72-CM17
2659-80-SE17
2664-129-SE17
2664-131-SE17
2664-133-CM17
2669-28-SE17
2672-14-CM17
2675-221-CM17
2675-261-SE17
2676-85-CM17
2677-64-SE17
2682-93-SE17
2683-63-SE17
2687-30-CM17
2688-31-CM17
2688-40-SE17
2698-86-CM17
2698-91-CM17
2698-93-CM17
2701-71-CM17
2702-60-SE17
2702-87-SE17
2702-90-SE17
2708-1491-CM16
2708-209-CM17
2708-218-CM17
2708-225-CM17
2708-232-CM17
2711-153-CM17
2711-155-CM17
2711-156-CM17
2712-102-CM17
2713-148-SE17
2713-155-SE17
2723-145-CM17
2723-177-CM17
2723-213-SE17
2726-67-CM17
1006-41-SE17
1017-12-SE17
1018-295-CM16
1019-91-CM17
1019-95-SE17
1028-59-SE17
1028-74-SE17
1037-41-CM17
1037-42-CM17
1037-43-SE17
1037-45-SE17
1037-46-SE17
1037-56-CM17
1038-117-SE17
1038-118-SE17
1038-136-CM17
1038-148-SE17
1039-210-CM17
1039-212-CM17
1070-21-SE17
1088-14-CM17
1092-89-CM17
1092-94-CM17
1106-53-SE17
1142-12-SE17
1155-428-CM17
1155-456-SE17
1159-22-CM17
1162-44-SE17
1175-214-CM17
1175-219-SE17
1191-72-CM17
1197-35-CM17
1197-38-CM17
1199-12-CM17
1200-776-CM16
1200-77-CM17
1236-24-SE17
1262-2-CM17
1269-12-SE17
1269-4-CM17
1288-104-CM17
1288-125-CM17
1288-126-CM17
1314-22-CM17
1340-50-SE17
1340-62-SE17
1341-6-CM17
1349-33-SE17
1360-42-CM17
1368-25-SE17
1376-103-CM17
1376-137-CM17
1380-1196-CM17
1380-1204-CM17
1380-1362-SE17
1380-1535-SE17
1380-1592-SE17
1380-1593-SE17
1380-1599-SE17
2902-116-SE17
2902-121-SE17
2902-122-SE17
2902-1298-SE11
2902-1581-SE09
2902-1898-SE11
2902-1922-SE13
2902-1931-SE16
2902-1976-SE10
2902-1990-SE15
2902-2242-SE10
2902-2256-SE10
2902-2327-SE13
2902-2444-SE11
2902-2731-SE11
2902-37-C108
2902-541-SE10
2902-573-SE09
2902-829-SE10
2902-857-SE14
2902-896-SE16
2902-902-SE15
2902-947-SE11
2902-960-SE09
2902-990-SE10
2904-1689-SE14
2904-3009-SE15
2904-549-SE14
2908-48-CM17
2909-22-SE17
2909-40-CM17
2912-214-SE17
29-17-SE17
2927-76-CM17
2929-74-CM17
2932-82-SE17
2940-10-CM17
2940-23-SE17
2941-41-CM17
2943-4-SE17
2945-169-SE17
2945-194-SE17
2945-218-SE17
2961-93-SE17
2980-170-SE17
2980-176-SE17
2980-178-SE17
2980-181-SE17
2981-290-CM17
2986-69-SE17
2989-91-SE17
2990-126-SE17
2992-275-SE17
2992-304-CM17
2994-38-SE17
2994-39-SE17
2996-113-SE17
2996-116-SE17
2996-126-SE17
3013-191-SE17
2726-75-SE17
2726-77-SE17
2727-77-CM17
2727-80-CM17
272-7-CM17
2731-142-SE17
2734-248-SE17
2734-257-SE17
2734-264-SE17
2734-274-SE17
2734-275-SE17
2734-291-SE17
2734-293-SE17
2734-300-SE17
2734-34-SE17
2735-202-CM17
2735-234-CM17
2735-328-CM17
2735-335-SE17
2735-78-CM17
2736-54-SE17
2737-322-SE17
2737-360-SE17
2737-433-CM17
2738-103-CM17
2744-38-CM17
2744-91-CM17
2744-92-CM17
2745-492-SE16
2763-148-SE17
2763-180-CM17
2763-204-CM17
2763-209-SE17
2763-221-CM17
2765-260-CM17
2766-188-SE17
2766-198-SE17
2771-106-CM17
2776-146-CM17
2776-151-CM17
2777-68-SE17
2778-115-CM17
2778-118-CM17
2778-69-CM17
2780-75-SE17
2780-86-SE17
2782-21-CM17
2785-184-SE17
2787-124-CM17
2788-235-SE17
2788-248-SE17
2788-249-SE17
2789-320-CM17
2789-323-CM17
2791-16-CM17
2793-163-CM17
2793-166-CM17
2799-49-SE17
2803-12-SE17
3017-101-CM17
3017-102-SE17
3017-104-SE17
3017-105-SE17
3017-110-SE17
3017-25-CM17
3021-86-SE17
3021-89-SE17
3024-38-SE17
3032-30-SE17
3035-30-CM17
3051-49-CM17
3076-38-CM17
3076-46-SE17
3081-16-CM17
3086-1003-SE16
3086-709-SE16
3086-821-SE16
3090-45-SE17
3092-6-CM17
3094-5-CM17
3095-4-CM17
3100-17-CM17
3105-7-CM17
3108-10-CM17
3109-81-CM17
3117-166-CM17
3121-17-CM17
3124-14-SE17
3132-14-SE17
3132-20-SE17
3132-22-SE17
3132-29-CM17
3135-9-SE17
3140-100-SE17
3141-24-SE17
3153-39-SE17
3153-41-SE17
3153-51-SE17
3156-111-SE17
3156-119-CM17
3159-58-CM17
3159-59-CM17
316-197-CM17
316-199-SE17
3167-30-CM17
3167-33-SE17
3167-34-CM17
3167-35-CM17
3178-466-SE17
3178-514-SE17
3178-551-SE17
3178-568-SE17
3178-577-SE17
3178-603-CM17
3178-628-SE17
3187-67-CM17
3191-676-SE17
3191-921-SE17
3193-57-CM17
3220-90-CM17
3228-39-CM17
3231-124-SE17
3231-130-SE17
3231-150-SE17
2803-68-SE17
2806-73-CM17
2817-3-CM17
2827-118-SE17
2827-172-SE17
2827-183-SE17
2833-119-CM17
2833-60-CM17
2833-94-CM17
2852-90-CM17
2852-91-CM17
2854-122-SE17
2887-15-CM17
2902-110-SE17
2902-111-SE17
2902-11571-SE08
2902-11573-SE08
2902-118-SE17
2902-1199-SE13
2902-119-SE17
2902-12240-SE08
2902-1295-SE13
2902-131-SE10
2902-1378-SE15
2902-1450-SE14
2902-148-SE09
2902-1504-SE16
2902-1523-SE13
2902-1677-SE14
2902-1720-SE16
2902-1737-SE10
2902-1747-SE13
2902-2179-SE13
2902-2298-SE09
2902-2362-SE14
2902-2642-SE10
2902-459-SE14
2902-600-SE14
2902-690-SE16
2902-774-SE08
2902-983-SE11
2904-1102-SE14
2904-187-SE17
2904-2665-SE14
2904-337-SE17
2909-24-SE17
2920-16-CM17
2923-93-CM17
2927-74-CM17
2934-6-CM17
2934-8-CM17
2934-9-CM17
2945-195-SE17
2945-197-SE17
2952-30-SE17
2961-101-CM17
2961-142-SE17
2980-168-SE17
2980-173-SE17
2980-175-SE17
2980-207-SE17
2981-256-CM17
2986-68-SE17
2986-72-SE17
2992-303-CM17
2902-1056-SE15
2902-106-SE17
2902-107-SE17
2902-1088-SE09
2902-108-SE17
2902-109-SE17
2902-113-CM17
2902-117-SE17
2902-11927-SE08
2902-1220-SE14
2902-1225-SE15
2902-1260-SE10
2902-1397-SE10
2902-1534-SE13
2902-1666-SE11
2902-1753-SE15
2902-1913-SE09
2902-1952-SE14
2902-2038-SE16
2902-2140-SE14
2902-2257-SE12
2902-2299-SE09
2902-2522-SE10
2902-2689-SE11
2902-2792-SE12
2902-77-SE09
2902-987-SE13
2904-338-SE17
2904-922-SE14
2905-102-SE17
2905-93-SE17
2909-38-CM17
2912-263-CM17
2915-28-CM17
2916-14-SE17
2929-75-SE17
2940-18-SE17
2940-24-SE17
2940-26-SE17
2941-45-CM17
2945-196-SE17
2945-199-SE17
2945-217-SE17
2950-147-SE17
2961-102-CM17
2961-108-CM17
2961-109-CM17
2961-140-CM17
2961-91-SE17
2980-208-CM17
2981-271-CM17
2983-67-CM17
2992-299-CM17
2992-306-CM17
2996-101-SE17
2996-111-SE17
2996-112-SE17
3013-192-SE17
3014-112-SE17
3014-98-SE17
3017-111-SE17
1380-1600-SE17
1380-1602-SE17
1380-1613-SE17
1380-1619-SE17
1380-1622-SE17
1380-1626-SE17
1380-1631-SE17
1380-1643-SE17
1380-1648-SE17
1380-1649-SE17
1380-1654-SE17
1380-1656-SE17
1380-1668-SE17
1380-1673-SE17
1380-1675-SE17
1380-1683-SE17
1382-289-SE17
1383-89-SE17
1384-142-SE17
1391-1004-CM17
1391-1009-CM17
1391-1013-CM17
1391-1020-CM17
1391-1025-CM17
1391-1028-CM17
1391-60-CM17
1391-896-CM17
1391-9378-CM16
1391-9502-CM16
1391-9640-CM16
1391-9812-CM16
1391-988-CM17
1393-54-SE17
1394-26-CM17
1396-299-SE17
1396-300-SE17
1396-301-SE17
1396-302-SE17
1396-303-SE17
1396-304-SE17
1396-305-SE17
1396-306-SE17
1398-155-CM17
1398-175-CM17
1400-12-SE17
1407-137-CM17
1407-73-CM17
1410-231-SE17
1411-1058-CM17
1411-1072-CM17
1411-1103-CM17
1413-314-CM17
1413-321-CM17
14-197-CM17
1421-66-CM17
1421-83-SE17
1424-13-CM17
3231-151-SE17
3231-152-SE17
3231-153-SE17
3232-173-CM17
3241-37-CM17
324-1540-SE16
3244-87-CM17
324-57-SE17
3246-100-CM17
324-63-CM17
324-69-SE17
3256-13-SE17
3275-63-CM17
3277-39-CM17
3277-68-CM17
3281-32-SE17
3284-208-SE17
3287-62-SE17
3305-173-SE17
3309-44-SE17
3309-64-SE17
3311-104-SE17
3311-106-CM17
3316-86-CM17
3317-128-SE17
3318-39-CM17
3320-110-CM17
3320-116-CM17
3320-126-CM17
3326-267-SE17
3326-273-CM17
3328-375-SE17
3328-399-SE17
3347-73-SE17
3356-3-CM17
3356-4-CM17
3359-19-SE17
3359-24-SE17
3363-39-CM17
3378-1009-SE17
3378-1032-SE17
3378-1090-SE17
3378-1139-SE17
3378-12303-CM16
3378-1240-CM17
3378-1250-SE17
3378-1269-CM17
3378-1312-SE17
3378-1444-SE17
3378-1586-SE17
3378-1588-SE17
3378-1597-SE17
3378-1609-SE17
3378-1615-SE17
2996-109-SE17
2996-114-SE17
2996-115-SE17
3013-190-SE17
3014-113-SE17
3014-99-SE17
3017-100-CM17
3017-106-SE17
3017-109-SE17
3017-1252-CM16
3019-121-SE17
3021-58-SE17
3021-75-SE17
3021-81-CM17
3021-82-CM17
3024-41-SE17
3032-31-SE17
3036-282-CM16
3037-23-SE16
3046-107-SE17
3051-50-CM17
3067-200-CM16
3076-45-SE17
3076-49-CM17
3076-9-SE17
3086-1228-SE16
3086-1253-CM16
3086-129-SE16
3089-47-SE17
3090-25-CM17
3090-47-SE17
3092-4-CM17
3100-18-CM17
3109-78-CM17
3109-79-CM17
3109-80-CM17
3130-262-CM17
3130-312-SE17
3132-12-SE17
3132-35-CM17
3132-36-SE17
3145-50-CM17
3147-33-SE17
3149-53-SE17
3149-55-SE17
3154-12-SE17
3156-121-CM17
3159-61-CM17
3159-62-CM17
3160-26-CM17
316-193-CM17
316-194-CM17
316-200-CM17
3167-32-CM17
3173-12-CM17
3173-13-CM17
3175-18-SE17
3178-194-SE17
3178-454-SE17
3178-536-SE17
3178-583-SE17
3178-596-SE17
3178-627-SE17
3178-631-CM17
3179-121-CM17
3019-122-SE17
3019-123-SE17
3019-143-CM17
3021-83-CM17
3021-88-SE17
3030-42-CM17
3032-23-CM17
3035-53-CM17
3046-117-CM17
3046-121-SE17
3046-84-CM17
3046-91-CM17
3046-98-SE17
3047-111-SE17
3047-113-SE17
3067-196-CM16
3073-193-CM17
3085-103-CM17
3086-121-SE17
3086-122-SE17
3086-124-SE17
3086-798-SE16
3086-799-SE16
3086-988-SE16
3090-24-CM17
3090-29-CM17
3095-2-CM17
3109-75-CM17
3109-82-CM17
3121-14-CM17
3121-16-CM17
3121-20-CM17
3130-268-CM17
3130-269-CM17
3130-289-SE17
3145-97-SE17
3147-34-SE17
3149-36-SE17
3149-54-CM17
3156-84-CM17
3159-57-CM17
3159-60-CM17
3159-63-SE17
3173-11-CM17
3178-112-SE17
3178-442-SE17
3178-570-CM17
3178-602-CM17
3178-619-CM17
3178-633-CM17
3179-1093-SE16
3179-140-CM17
3181-100-SE17
3187-68-CM17
3191-324-SE17
3191-5282-SE16
3191-865-CM17
3196-15-SE17
3200-21-CM17
3206-47-SE17
3217-21-SE17
3231-155-CM17
3241-41-CM17
324-27-SE17
324-28-CM17
3244-88-CM17
3183-3-SE17
3187-44-CM17
3191-647-SE17
3191-731-SE17
3191-903-CM17
3193-28-CM17
3201-59-CM17
3201-87-CM17
3201-89-SE17
3210-21-CM17
3212-34-SE17
3213-62-CM17
3232-161-CM17
3232-167-CM17
3238-4-CM17
3241-34-SE17
3241-39-CM17
3244-84-SE17
3244-91-CM17
324-6-CM17
3249-19-CM17
324-9-CM17
3251-42-CM17
3268-103-SE17
3274-44-CM17
3276-80-SE17
3276-97-SE17
3277-50-CM17
3281-27-CM17
3281-28-CM17
3281-29-SE17
3284-198-SE17
3284-207-SE17
3284-209-SE17
3286-189-SE17
3287-41-CM17
3287-60-SE17
3287-61-SE17
3290-51-SE17
3292-62-CM17
3299-23-CM17
3305-186-CM17
3305-188-CM17
3309-63-SE17
3312-30-SE17
3313-17-CM17
3316-89-CM17
3318-40-CM17
3318-41-CM17
3319-203-CM17
3319-205-CM17
3320-105-CM17
3320-109-CM17
3320-115-CM17
3323-23-CM17
3326-258-SE17
3326-268-SE17
3378-359-SE17
3378-390-SE17
3382-94-SE17
3382-98-SE17
3383-17-SE17
3383-22-SE17
3383-26-SE17
3384-70-SE17
3385-12-CM17
3391-283-SE17
3391-290-SE17
3391-292-SE17
3399-12-CM17
3399-14-CM17
3401-46-SE17
3401-54-CM17
3416-157-CM17
3416-196-CM17
3417-111-CM17
3417-67-CM17
3417-98-CM17
3421-13-SE17
3436-88-CM17
3437-22-CM17
3438-11-CM17
3440-12-CM17
3442-19-CM17
3443-94-SE17
3447-175-SE17
3447-370-CM17
3447-372-SE17
3447-376-SE17
3447-379-SE17
3447-381-CM17
3462-19-CM17
3462-25-CM17
3471-368-SE17
3471-3693-SE16
3471-479-CM17
3471-4-SE17
3477-105-SE17
3477-110-SE17
3477-140-CM17
3477-37-CM17
3477-3-CM17
3479-351-CM17
3479-355-CM17
3479-364-SE17
3479-365-SE17
3479-368-CM17
3485-140-CM17
3485-142-CM17
3485-143-CM17
3485-145-SE17
3485-147-SE17
3485-153-SE17
3496-32-CM17
3496-33-CM17
3501-59-SE17
3502-101-SE17
3502-119-SE17
3502-120-SE17
1431-8-SE17
1434-68-CM17
1437-292-SE17
1442-21-CM17
1442-22-SE17
1451-23-CM17
1454-206-SE17
1464-166-SE17
1471-6-SE17
1477-51-SE17
1477-54-CM17
1477-62-SE17
1493-110-SE17
1495-86-CM17
1495-90-SE17
1498-169-SE17
1499-1013-SE17
1499-1017-CM17
1499-1018-CM17
1499-958-SE17
1499-984-SE17
1499-998-CM17
1506-34-SE17
1511-1087-SE16
1511-1088-SE16
1511-1216-SE16
1511-1301-SE16
1511-1302-SE16
1511-1313-SE16
1511-139-SE17
1511-1439-SE16
1511-1558-SE16
1511-1565-SE16
1511-947-SE16
1514-3699-SE16
1514-476-SE17
1514-501-SE17
1514-511-SE17
1514-552-SE17
1514-582-SE17
1514-586-SE17
1514-602-SE17
1514-607-SE17
1514-619-SE17
1515-19-CM17
1523-243-SE17
1523-281-SE17
1523-302-SE17
1523-305-CM17
1523-306-CM17
1523-310-CM17
1523-312-CM17
1523-317-SE17
1523-322-CM17
1524-207-CM17
1524-259-CM17
1524-267-CM17
1527-120-SE17
3246-105-CM17
