2289-226-SE17
2294-128-CM17
2294-159-SE17
2294-4659-CM16
2297-383-SE17
2297-395-SE17
2297-401-SE17
2298-71-CM17
2304-4-CM17
2307-339-SE17
2307-340-SE17
2310-109-SE17
2310-50-CM17
2316-47-CM17
2316-57-CM17
2322-70-SE17
2322-71-SE17
2324-452-CM17
2324-607-SE17
2324-660-CM17
2324-709-CM17
2324-730-SE17
2324-732-SE17
2324-740-CM17
2328-176-CM17
2333-239-CM17
2333-241-CM17
2333-247-SE17
2335-60-SE17
2336-1813-CM16
2336-42-CM17
2336-45-CM17
2336-46-CM17
2060-427-SE17
2061-264-SE17
2061-573-SE17
2061-579-SE17
2061-582-SE17
2061-584-SE17
2061-594-CM17
2065-71-CM17
2066-63-SE17
2069-1623-SE17
2069-1641-SE17
2069-1645-SE17
2069-1648-SE17
2069-1649-CM17
2069-1772-SE17
2069-1800-SE17
2069-1822-SE17
2069-1947-CM17
2069-1958-SE17
2069-353-SE17
2069-953-SE17
2069-984-SE17
2078-185-SE17
2078-188-SE17
2078-191-SE17
2078-195-SE17
2078-216-SE17
2078-234-SE17
2078-235-SE17
2080-1006-CM17
2080-1008-SE17
2080-1015-CM17
2080-1042-CM17
2080-12088-SE16
2080-180-SE17
2080-983-CM17
2084-17-CM17
2084-986-SE16
2085-103-SE17
2085-133-CM17
2090-136-CM17
2093-10-CM17
2096-138-CM17
2096-174-SE17
2097-211-SE17
2098-2141-CM16
2098-324-SE17
2099-90-SE17
2101-148-CM17
2101-152-CM17
2101-262-SE17
2101-271-SE17
2101-277-SE17
2101-685-CM16
2102-72-CM17
2103-59-SE17
2104-2918-SE16
2104-435-CM17
2104-438-CM17
2105-1069-SE17
2105-1089-SE17
2105-1098-SE17
2105-1123-SE17
2341-365-CM17
2341-372-SE17
2343-220-SE17
2343-261-SE17
2343-280-CM17
2345-351-CM17
2345-382-SE17
2348-87-SE17
2358-52-SE17
2358-64-CM17
2358-66-CM17
2360-184-SE17
2361-408-SE17
2366-121-SE17
2366-123-SE17
2366-126-SE17
2366-129-SE17
2366-130-SE17
2366-132-SE17
2374-57-SE17
2375-115-CM17
2375-116-CM17
2377-117-SE17
2377-167-SE17
2377-54-SE17
2377-61-SE17
2380-162-CM17
2380-166-CM17
2380-197-CM17
2381-141-SE17
2381-143-SE17
2384-7-CM17
2384-8-CM17
2385-65-SE17
2385-66-CM17
2385-71-CM17
2385-73-CM17
2387-193-CM17
2393-61-CM17
2394-87-CM17
2395-114-SE17
2395-130-SE17
2401-131-CM17
2401-153-SE17
2403-1928-SE16
2403-2259-SE16
2403-310-SE17
2403-314-SE17
2403-316-SE17
2403-318-SE17
2404-278-SE17
2404-296-SE17
2404-307-SE17
2404-318-SE17
2404-327-CM17
2404-347-SE17
2404-348-SE17
2407-65-CM17
2408-100-CM17
2409-287-CM17
2409-303-CM17
2412-1335-CM16
2412-232-SE17
2412-234-SE17
2417-7-CM17
2420-185-CM17
2420-190-CM17
2420-201-CM17
2420-215-CM17
2422-111-CM17
2422-115-SE17
2422-93-SE17
2424-244-SE17
2424-245-SE17
2424-76-SE17
2427-199-CM17
2427-208-CM17
2427-220-SE17
2427-240-SE17
2427-242-CM17
2427-243-CM17
2429-209-SE17
2429-224-CM17
2429-242-CM17
2429-3027-SE16
2433-57-CM17
2436-321-CM17
2436-323-CM17
2436-337-CM17
2436-351-CM17
2436-353-CM17
2436-354-CM17
2436-363-SE17
2436-366-SE17
2436-367-SE17
2440-266-CM17
2445-142-SE17
2445-149-SE17
2445-151-CM17
2446-72-CM17
2450-252-SE17
2451-109-CM17
2451-142-CM17
2452-259-SE17
2452-280-SE17
2453-108-CM17
2458-46-SE17
2458-47-SE17
2460-104-SE17
2460-169-CM17
2464-162-SE17
2464-171-SE17
2467-281-CM17
2467-282-CM17
2467-316-SE17
2471-118-CM17
2471-188-CM17
2471-262-CM17
2471-297-SE17
2471-32-SE17
2471-368-CM17
2471-370-CM17
2471-371-CM17
2471-76-SE17
2496-156-CM17
2496-157-SE17
2511-102-SE17
2555-102-SE16
2555-410-CM16
2555-433-CM16
2555-530-SE16
2555-613-CM16
2555-620-SE16
2555-624-CM16
2555-627-CM16
2555-648-CM16
2555-657-CM16
2555-661-CM16
2555-662-CM16
2555-667-CM16
2555-679-SE16
2555-680-SE16
2555-686-CM16
2555-688-CM16
2555-694-SE16
2555-695-CM16
2555-711-SE16
2555-728-SE16
2555-88-CM17
2561-113-CM17
2566-77-SE17
2577-82-SE17
2579-16-CM17
2580-23-CM17
2580-606-CM16
2580-626-CM16
2583-290-CM17
2583-302-CM17
2583-310-CM17
2585-114-CM17
2591-74-SE17
2594-222-CM17
2594-232-CM17
2594-296-CM17
2600-11-SE17
2600-16-SE17
2600-17-SE17
2600-26-SE17
2615-3-CM17
2626-255-SE17
2626-261-SE17
2656-126-SE17
2128-1142-CM17
2128-1145-SE17
2128-1167-SE17
2128-1172-SE17
2128-1176-CM17
2128-1183-CM17
2128-1188-CM17
2128-1193-SE17
2128-1194-SE17
2128-153-SE17
2128-758-SE17
2130-1131-SE17
2130-1150-SE17
2130-787-SE17
2139-115-SE17
2142-717-CM17
2142-722-CM17
2142-759-SE17
2142-760-SE17
2142-764-SE17
2144-108-SE17
2145-337-SE16
2145-447-SE16
2145-658-SE16
2147-25-SE17
2153-134-SE17
2153-137-CM17
2157-338-SE17
2157-339-SE17
2157-373-SE17
2157-385-SE17
2165-1201-SE17
2165-1202-SE17
2165-1203-SE17
2165-1205-SE17
2165-1207-SE17
2170-149-CM17
2170-154-SE17
2171-85-CM17
2174-22-SE17
218-128-SE17
2184-39-SE17
2184-44-SE17
2188-15-CM17
2188-16-CM17
2192-62-SE17
2192-65-SE17
2192-67-CM17
2192-91-SE17
2193-41-SE17
2195-42-CM17
2196-124-SE17
2196-131-SE17
2198-267-CM17
2198-276-CM17
2198-277-CM17
2200-15-SE17
2201-115-CM17
2201-116-CM17
2201-117-CM17
2201-119-CM17
2201-120-CM17
2201-127-CM17
2204-203-SE17
2204-211-SE17
2207-104-SE17
2215-390-CM17
2215-407-SE17
2221-29-SE17
2230-16-SE17
2241-19-SE17
2252-1001-SE17
2252-1025-CM17
2252-1031-SE17
2252-1056-CM17
2252-1106-SE17
2252-1137-SE17
2252-1147-SE17
2252-1149-CM17
2252-1177-SE17
2252-992-CM17
2258-1048-CM17
2258-1066-SE17
2258-1096-CM17
2258-1097-SE17
2258-1103-CM17
2258-1110-CM17
2258-7480-SE16
2270-45-SE17
2275-175-SE16
2279-101-SE17
2279-12-CM17
2279-218-CM17
2279-219-CM17
2279-220-CM17
2279-260-SE17
2279-262-SE17
2279-266-SE17
2279-269-SE17
2279-284-CM17
2280-308-SE17
2280-314-SE17
2280-322-CM17
2280-324-CM17
2280-327-CM17
2281-565-SE17
2284-215-SE17
2287-251-CM17
2287-261-CM17
2287-264-SE17
2287-269-CM17
2287-274-SE17
2287-275-SE17
2288-165-CM17
2288-172-SE17
2289-227-SE17
2294-158-SE17
2296-171-SE17
2296-218-SE17
2297-371-SE17
2298-72-CM17
2304-2-CM17
2306-166-CM17
2307-296-CM17
2105-1139-SE17
2105-1158-SE17
2105-1169-SE17
2105-1178-SE17
2105-1188-SE17
2105-1189-SE17
2105-1190-SE17
2105-1195-SE17
2105-1202-SE17
2105-1205-SE17
2105-1206-SE17
2105-1211-SE17
2105-1214-SE17
2105-1216-SE17
2105-1217-SE17
2105-1218-SE17
2105-1228-SE17
2105-1229-SE17
2105-1233-SE17
2105-1236-SE17
2105-1237-SE17
2105-1240-SE17
2105-1246-SE17
2105-1253-SE17
2105-1256-SE17
2105-1264-SE17
2105-1266-SE17
2105-1269-SE17
2105-1274-SE17
2105-1275-CM17
2105-1290-SE17
2105-1293-SE17
2105-1294-SE17
2105-7939-SE16
2105-875-SE17
2105-887-SE17
2105-940-SE17
2105-983-SE17
2107-183-CM17
2109-110-SE17
2109-119-SE17
2109-196-SE17
2109-207-SE17
2109-209-SE17
2109-381-SE17
2109-391-SE17
2109-392-CM17
2109-56-SE17
2109-59-SE17
2109-62-SE17
2109-63-SE17
2109-65-SE17
2109-68-SE17
2110-138-SE16
2110-143-SE17
2110-30-SE16
2110-377-SE16
2111-27-SE17
2111-325-SE17
2111-338-CM17
2111-508-CM17
2111-514-CM17
2111-611-SE17
2111-618-SE17
2112-53-SE17
2113-147-SE17
2115-119-CM17
2115-123-CM17
2116-95-CM17
2116-98-CM17
2120-214-CM17
2120-625-SE17
1947-630-CM17
1947-639-SE17
1947-645-CM17
1947-646-CM17
1947-659-SE17
1950-325-CM17
1950-326-SE17
1950-328-SE17
1950-332-SE17
1952-235-SE17
1952-352-SE17
1952-370-SE17
1953-1108-CM17
1953-623-CM17
1953-970-CM17
1959-176-SE17
1959-441-SE17
1959-684-SE17
1960-44-CM17
1962-175-SE17
1965-153-SE17
1965-173-CM17
1965-175-SE17
1965-176-SE17
1968-531-CM17
1968-532-CM17
1968-564-CM17
1968-569-CM17
1968-785-CM17
1968-915-SE17
1968-932-CM17
1968-935-CM17
1968-936-SE17
1968-944-CM17
1969-1000-CM17
1969-1005-SE17
1969-1013-CM17
1969-1020-SE17
1969-470-CM17
1969-911-CM17
1969-924-CM17
1969-974-CM17
1969-997-CM17
1973-227-SE17
1973-362-SE17
1973-364-CM17
1973-366-SE17
1974-195-CM17
1974-201-CM17
1978-104-SE17
1979-446-SE17
1979-481-SE17
1987-29-SE17
2120-626-SE17
2120-644-SE17
2123-51-CM17
2123-59-CM17
2123-64-CM17
2125-257-SE17
2125-263-SE17
2125-265-SE17
2126-1076-CM17
2126-1091-SE17
2126-1096-SE17
2126-1115-SE17
2126-9274-SE16
2126-969-SE17
2128-1047-SE17
2128-1171-SE17
2128-1184-CM17
2128-1190-SE17
2128-1196-SE17
2129-103-CM17
2130-1111-SE17
2130-1137-CM17
2130-1140-SE17
2130-1141-SE17
2130-1143-SE17
2130-1151-SE17
2130-1156-CM17
2130-789-SE17
2132-28-SE17
2136-800-SE16
2139-110-SE17
2140-109-SE17
2140-110-SE17
2142-327-CM17
2142-761-SE17
2142-767-SE17
2142-768-CM17
2142-771-SE17
2144-110-SE17
2145-120-CM17
2145-677-SE16
2145-730-SE16
2145-779-SE16
2146-18-CM17
2146-31-CM17
2146-35-CM17
2146-47-CM17
2150-148-SE17
2153-135-CM17
2153-136-CM17
2157-381-SE17
2157-383-SE17
2164-380-SE17
2164-381-SE17
2170-151-SE17
2174-19-CM17
2181-30-SE17
2013-193-SE17
2015-476-SE17
2015-527-SE17
2015-529-SE17
2015-535-SE17
2021-105-CM17
2021-118-CM17
2021-66-CM17
2026-346-CM17
2026-354-CM17
2026-356-SE17
2045-43-SE17
2045-46-SE17
2046-62-CM17
2046-63-CM17
2048-355-SE17
2048-357-SE17
2049-6-SE17
2049-7-SE17
2049-8-SE17
2053-186-SE17
2058-1066-CM17
2058-1067-SE17
2059-135-SE16
2060-418-CM17
2060-429-SE17
2061-576-SE17
2061-583-SE17
2061-588-SE17
2061-590-SE17
2061-591-SE17
2061-592-SE17
2067-37-SE17
2069-1131-SE17
2069-1395-SE17
2069-1522-SE17
2069-1650-CM17
2069-1726-CM17
2069-1752-SE17
2069-1797-SE17
2069-1827-CM17
2069-1862-SE17
2069-1875-SE17
2069-1880-SE17
2069-1888-CM17
2069-1910-SE17
2069-1912-SE17
2069-333-SE17
2069-388-SE17
2074-5-SE17
2078-202-SE17
2078-233-SE17
2078-255-SE17
2080-1009-CM17
2080-1013-CM17
2080-1043-CM17
2084-125-SE17
2084-126-SE17
2084-985-SE16
2085-123-CM17
2086-113-SE17
2089-106-SE17
2089-88-SE17
2096-170-SE17
2097-244-SE17
2097-256-CM17
2097-263-CM17
2097-268-CM17
2097-275-SE17
2097-276-SE17
2098-305-SE17
2098-323-SE17
2099-91-SE17
2101-115-CM17
2101-120-CM17
2101-151-CM17
2101-254-SE17
2101-257-SE17
2101-261-SE17
2101-264-SE17
2101-276-SE17
2104-2900-SE16
2104-436-CM17
2105-1012-SE17
2105-1016-SE17
2105-1081-SE17
2105-1085-SE17
2105-1096-SE17
2105-1104-SE17
2105-1113-SE17
2105-1125-SE17
2105-1127-SE17
2105-1128-SE17
2105-1130-SE17
2105-1155-CM17
2105-1157-SE17
2105-1179-SE17
2105-1183-SE17
2105-1187-SE17
2105-1203-SE17
2105-1207-SE17
2105-1209-SE17
2105-1215-SE17
2105-1225-SE17
2105-1230-SE17
2105-1231-SE17
2105-1235-SE17
2105-1239-SE17
2105-1241-SE17
2105-1243-SE17
2105-1252-SE17
2105-1261-SE17
2105-1263-SE17
2105-1270-SE17
2105-1281-SE17
2105-1284-SE17
2105-1291-SE17
2105-1297-SE17
2105-4695-SE16
2105-600-SE17
2105-78-SE17
2105-7920-SE16
2107-178-SE17
2109-115-SE17
2109-123-SE17
2109-200-SE17
2109-204-SE17
2109-218-SE17
2109-316-SE17
2109-322-SE17
2109-384-CM17
2109-394-SE17
2658-255-SE17
2658-280-SE17
2658-281-SE17
2663-36-CM17
2664-136-SE17
2664-140-SE17
2669-34-SE17
2671-48-CM17
2675-259-CM17
2682-107-CM17
2686-19-CM17
2687-526-CM16
2694-106-CM17
2696-32-CM17
2698-102-CM17
2698-97-CM17
2702-341-SE16
2702-585-SE16
2703-111-SE17
2703-115-SE17
2703-116-SE17
2703-120-SE17
2703-123-SE17
2708-117-SE17
2708-177-SE17
2708-231-CM17
2708-234-CM17
2708-235-SE17
2710-204-SE17
2710-259-SE17
2710-260-SE17
2710-269-SE17
2711-139-CM17
2711-143-CM17
2711-144-CM17
2711-154-CM17
2713-113-SE17
2713-161-SE17
2713-162-SE17
2713-163-SE17
2727-74-CM17
2727-84-SE17
2730-124-SE17
2731-145-SE17
2733-177-SE17
2734-177-CM17
2734-249-SE17
2734-286-SE17
2734-301-SE17
2734-306-CM17
2735-158-CM17
2735-344-SE17
2735-345-SE17
2735-92-CM17
2735-93-CM17
2737-382-SE17
2737-453-SE17
2184-34-CM17
2184-40-CM17
2184-43-SE17
2186-148-CM17
2186-149-CM17
2188-17-CM17
2195-40-CM17
2195-43-CM17
2196-127-CM17
2196-128-CM17
2198-268-CM17
2198-271-CM17
2198-272-CM17
2198-278-CM17
2201-104-SE17
2201-105-SE17
2201-106-CM17
2201-110-CM17
2201-124-CM17
2201-125-CM17
2201-98-SE17
2204-213-SE17
2204-216-CM17
2204-221-SE17
2208-11-SE17
2212-90-SE17
2212-93-CM17
2215-348-SE17
2215-384-CM17
2215-393-CM17
2252-1015-CM17
2252-1035-CM17
2252-1054-CM17
2252-1098-CM17
2252-1108-SE17
2252-1130-SE17
2252-1135-SE17
2252-1143-SE17
2252-1144-SE17
2252-1153-CM17
2252-1159-SE17
2252-1167-SE17
2252-1168-SE17
2252-1172-SE17
2252-1173-SE17
2252-1179-SE17
2252-939-CM17
2252-993-SE17
2258-1063-SE17
2258-1067-CM17
2258-1091-CM17
2258-1099-CM17
2258-1112-CM17
2258-414-SE17
2273-252-SE17
2273-253-SE17
2274-89-SE17
2279-212-CM17
2279-255-CM17
2279-277-SE17
2279-3922-SE16
2280-300-CM17
2280-310-SE17
2280-317-SE17
2281-487-CM17
2737-455-SE17
2747-4-SE17
2757-104-SE17
2757-98-SE17
2763-118-SE17
2763-125-SE17
2763-159-SE17
2763-160-SE17
2763-163-SE17
2763-192-SE17
2763-229-SE17
2765-268-SE17
2765-269-CM17
2767-38-SE17
2773-48-CM17
2773-94-SE17
2775-10-SE17
2775-9-SE17
2776-159-CM17
2778-25-CM17
2778-60-CM17
2778-76-CM17
2778-78-CM17
2780-58-SE17
2783-223-SE17
2783-225-SE17
2785-174-SE17
2785-186-SE17
2785-189-CM17
2785-193-CM17
2786-123-CM17
2786-128-SE17
2788-244-CM17
2789-324-CM17
2789-329-CM17
2790-112-CM17
2793-201-SE17
2793-207-CM17
2793-210-CM17
2793-212-SE17
2799-188-SE17
2799-193-SE17
2805-55-SE17
2806-54-SE17
2826-52-CM17
2826-54-CM17
2826-59-CM17
2827-190-CM17
2827-192-CM17
2827-195-CM17
2833-127-CM17
2852-94-CM17
2852-95-SE17
2853-12-SE17
2853-19-CM17
2854-125-SE17
2859-76-SE17
2862-23-SE17
2864-6-SE17
2109-60-SE17
2109-70-SE17
2110-1136-SE16
2110-1286-SE15
2111-601-SE17
2111-603-SE17
2111-610-SE17
2115-118-SE17
2115-122-CM17
2116-92-CM17
2116-97-CM17
2120-525-CM17
2120-585-CM17
2120-586-CM17
2120-590-CM17
2120-623-SE17
2120-631-SE17
2120-636-SE17
2120-643-SE17
2122-77-SE17
2123-194-CM17
2123-2373-SE16
2125-261-SE17
2125-262-SE17
2125-267-SE17
2126-1075-CM17
2126-1094-CM17
2126-1105-SE17
2126-160-SE17
2126-878-SE17
2126-958-CM17
2128-1140-SE17
2128-1146-SE17
2128-1160-CM17
2128-1180-CM17
2128-1186-CM17
2128-1192-SE17
2128-1195-SE17
2128-784-SE17
2129-112-SE17
2130-1113-SE17
2130-1142-SE17
2130-1152-SE17
2130-8821-SE16
2130-958-SE17
2132-29-SE17
2139-109-SE17
2142-660-SE17
2142-758-CM17
2142-763-SE17
2142-770-SE17
2145-268-SE16
2145-286-SE16
2145-338-SE16
2145-507-SE16
2145-588-SE16
2145-606-SE16
2145-731-SE16
2146-37-CM17
2146-661-CM16
2157-331-SE17
2157-376-SE17
2157-377-SE17
2307-303-CM17
2307-332-SE17
2307-335-SE17
2310-100-SE17
2310-98-SE17
2311-64-SE17
2316-54-SE17
2324-541-SE17
2324-645-SE17
2324-713-CM17
2324-733-SE17
2324-734-SE17
2324-735-SE17
2324-737-SE17
2324-738-CM17
2328-298-SE17
2328-3595-SE16
2328-3622-CM16
2332-1478-SE16
2333-188-CM17
2336-44-CM17
2336-50-CM17
2336-53-CM17
2336-95-CM17
2336-98-CM17
2341-367-SE17
2341-369-SE17
2348-104-SE17
2348-85-SE17
2354-65-CM17
2361-381-CM17
2361-385-CM17
2366-122-SE17
2366-127-SE17
2366-133-SE17
2366-134-SE17
2366-142-CM17
2371-37-CM17
2374-51-SE17
2375-109-CM17
2377-140-SE17
2377-143-SE17
2377-44-SE17
2377-55-SE17
2377-57-SE17
2377-62-SE17
2380-200-SE17
2380-203-CM17
2381-136-SE17
2385-69-CM17
2395-132-SE17
2395-134-SE17
2395-92-CM17
2401-152-SE17
2401-157-CM17
2401-97-SE17
2403-319-SE17
2403-320-SE17
2164-382-CM17
2165-1204-SE17
2165-1208-SE17
2165-1209-SE17
2165-1210-SE17
2165-969-SE17
2170-106-SE17
2170-156-CM17
2171-93-CM17
2174-18-CM17
2174-20-CM17
2174-21-CM17
2175-19-CM17
2181-32-CM17
2184-35-CM17
2189-67-CM17
2192-34-CM17
2192-61-SE17
2192-76-SE17
2198-269-CM17
2201-112-CM17
2201-118-CM17
2201-121-CM17
2201-126-CM17
2201-128-CM17
2201-131-SE17
2201-134-SE17
2201-492-SE16
2202-129-CM17
2204-222-SE17
2207-103-SE17
2207-81-CM17
2212-88-CM17
2212-91-CM17
2215-362-CM17
2215-375-CM17
2215-382-CM17
2215-394-CM17
2215-401-CM17
2215-409-SE17
2216-105-CM17
2249-22-CM17
2252-1007-SE17
2252-1017-CM17
2252-1024-CM17
2252-1037-CM17
2252-1123-CM17
2252-1129-SE17
2252-1131-SE17
2252-1139-SE17
2252-1148-SE17
2252-1163-CM17
2252-1180-SE17
2252-936-SE17
2252-940-CM17
2252-983-CM17
2258-1090-SE17
2258-1092-SE17
2258-1093-SE17
2258-1100-SE17
2258-1106-SE17
2258-1109-SE17
2258-1111-CM17
2258-1113-CM17
2270-78-CM17
2273-155-SE17
2273-254-SE17
2273-75-SE17
2279-10-CM17
2281-583-CM17
2281-586-CM17
2284-216-SE17
2284-217-SE17
2287-259-CM17
2287-271-SE17
2287-276-SE17
2288-173-SE17
2288-180-SE17
2294-160-CM17
2294-161-SE17
2297-355-SE17
2297-372-SE17
2297-387-SE17
229-90-SE17
2307-295-CM17
2307-304-CM17
2307-307-CM17
2307-341-SE17
2310-110-CM17
2311-695-SE16
2312-70-SE17
2312-71-SE17
2312-72-SE17
2318-113-SE17
2318-114-SE17
2318-116-SE17
2318-117-SE17
2318-118-SE17
2321-30-SE17
2324-656-CM17
2324-710-SE17
2328-273-CM17
2333-235-CM17
2333-240-CM17
2336-48-CM17
2336-52-CM17
2336-96-CM17
2343-251-SE17
2343-274-SE17
2343-277-CM17
2343-285-SE17
2343-288-CM17
2343-289-SE17
2345-281-SE17
2348-88-SE17
2348-93-CM17
2354-58-SE17
2360-209-CM17
2361-384-CM17
2361-407-SE17
2361-413-CM17
2366-124-SE17
2366-125-SE17
2366-128-SE17
2366-136-SE17
2366-143-CM17
2902-114-SE17
2902-123-SE17
2904-302-SE17
2904-342-SE17
2904-347-SE17
2904-350-SE17
2905-88-SE17
2909-23-SE17
2909-39-CM17
2910-88-SE17
2923-102-SE17
2929-62-SE17
2929-77-CM17
2933-22-CM17
2934-10-CM17
2935-24-CM17
2940-29-CM17
2941-44-CM17
2945-183-SE17
2945-184-SE17
2945-186-SE17
2945-188-SE17
2945-205-SE17
2945-208-SE17
2945-209-SE17
2952-17-CM17
2974-38-CM17
2974-40-CM17
2980-209-SE17
2981-2713-SE16
2981-282-CM17
2981-300-CM17
2981-309-CM17
2981-316-CM17
2981-323-CM17
2982-23-CM17
2986-74-SE17
2986-75-SE17
2992-312-CM17
3000-212-SE17
3000-217-SE17
3000-221-SE17
3013-126-SE17
3013-199-SE17
3013-202-SE17
3014-108-SE17
3014-114-SE17
3016-10-SE17
3016-18-SE17
3016-55-SE17
3016-9-SE17
3017-108-SE17
3019-148-SE17
3032-33-CM17
3046-90-CM17
3047-123-CM17
3047-130-CM17
3047-133-CM17
3051-54-SE17
3055-5-CM17
3061-22-CM17
2279-157-SE17
2279-247-CM17
2279-268-SE17
2279-270-SE17
2279-271-SE17
2279-278-SE17
2279-279-SE17
2279-283-CM17
2279-2975-CM16
2279-2976-CM16
2279-6-CM17
2280-309-SE17
2280-312-SE17
2280-315-SE17
2280-320-CM17
2280-325-CM17
2280-326-CM17
2281-511-CM17
2281-596-SE17
2284-218-SE17
2287-268-CM17
2287-278-CM17
2288-175-SE17
2288-176-SE17
2291-530-CM17
2291-564-CM17
2291-570-CM17
2291-572-SE17
2292-151-CM17
2292-191-SE17
2292-192-CM17
2294-4710-CM16
2296-188-SE17
2296-221-CM17
229-80-CM17
2298-64-CM17
2298-70-CM17
2306-159-CM17
2306-167-CM17
2307-2806-SE16
2307-333-SE17
2307-345-CM17
2310-105-SE17
2318-101-CM17
2321-26-CM17
2322-64-SE17
2324-459-CM17
2324-663-SE17
2324-666-SE17
2324-668-SE17
2324-700-SE17
2324-731-SE17
2328-128-CM17
2333-238-SE17
2333-243-SE17
2333-250-CM17
2336-28-CM17
2336-39-CM17
2336-41-CM17
2336-43-CM17
2336-55-CM17
2341-370-SE17
2343-223-CM17
2343-265-SE17
2343-283-CM17
2343-290-SE17
2345-251-SE17
2345-311-SE17
2345-365-CM17
2346-3-CM17
2358-65-CM17
2360-198-SE17
2360-207-CM17
2361-388-CM17
2366-131-SE17
2374-45-CM17
2377-16-SE17
2377-46-SE17
2377-49-SE17
2377-53-SE17
2377-63-SE17
2380-184-CM17
2380-201-SE17
2380-204-CM17
2381-128-SE17
2381-137-SE17
2381-144-SE17
2381-99-CM17
2384-5-CM17
2385-70-SE17
2385-74-SE17
2387-181-SE17
2387-192-SE17
2393-112-CM17
2395-128-SE17
2395-133-SE17
2395-135-SE17
2401-123-SE17
2401-142-SE17
2401-149-CM17
2403-313-SE17
2403-323-CM17
2403-324-CM17
2404-285-SE17
2404-334-CM17
2404-349-SE17
2408-76-CM17
2409-145-SE17
2409-238-SE17
2409-261-SE17
2409-293-SE17
2412-206-SE17
2412-229-CM17
2412-237-CM17
2416-44-CM17
2416-55-CM17
2420-194-CM17
2420-200-CM17
2421-297-CM17
2421-375-CM17
2422-107-CM17
2422-96-CM17
2422-97-CM17
2423-1133-SE15
2424-175-CM17
2424-187-CM17
2424-275-SE17
2424-284-SE17
2427-211-CM17
2427-229-CM17
2429-241-CM17
2429-243-SE17
2433-55-CM17
2436-327-CM17
2436-336-CM17
2436-357-CM17
2436-365-SE17
2440-308-CM17
2440-332-CM17
2445-139-CM17
2447-46-SE17
2447-780-SE16
2450-237-SE17
2450-238-SE17
2450-245-SE17
2451-147-CM17
2451-217-SE17
2451-269-SE17
2453-100-CM17
2453-96-CM17
2455-10-CM17
2458-43-CM17
2460-130-CM17
2464-159-SE17
2464-168-SE17
2464-175-SE17
2466-25-CM17
2467-268-SE17
2467-298-CM17
2467-321-SE17
2471-207-CM17
2471-227-CM17
2471-387-SE17
2471-51-SE17
2471-69-SE17
2495-201-SE17
2495-202-SE17
2511-112-CM17
2511-113-SE17
2555-375-SE16
2555-457-CM16
2555-45-SE16
2555-47-SE16
2555-489-SE16
2555-606-CM16
2555-634-CM16
2555-636-SE16
2555-639-CM16
2555-644-SE16
2555-653-CM16
2555-656-CM16
2555-663-CM16
2555-670-CM16
2555-681-CM16
2555-682-SE16
2555-683-SE16
2555-700-SE16
2555-710-SE16
2555-724-SE16
2555-726-SE16
2555-733-SE16
2555-735-SE16
2555-92-SE17
2565-90-SE17
2566-73-SE17
2569-15-CM17
2582-40-SE17
2583-247-SE17
2583-269-SE17
2583-305-CM17
2591-75-SE17
2591-77-SE17
2591-79-SE17
2594-221-CM17
2594-286-CM17
2594-294-CM17
2600-21-SE17
2600-27-SE17
2600-28-SE17
2626-257-SE17
2626-258-SE17
2626-264-SE17
2626-265-SE17
2626-267-SE17
2629-64-SE17
2656-100-CM17
2657-34-SE17
2657-47-SE17
2658-247-SE17
2658-278-SE17
2658-282-SE17
2658-285-SE17
2664-137-SE17
2667-15-CM17
2674-199-SE17
2675-258-CM17
2676-79-CM17
2696-60-CM17
2696-61-SE17
2698-104-CM17
2698-105-CM17
2698-94-SE17
2701-72-CM17
2701-78-CM17
2702-92-SE17
2703-105-SE17
2703-122-SE17
2703-1254-CM16
2703-126-SE17
2703-128-SE17
2703-129-SE17
2703-134-SE17
2703-143-SE17
2703-146-SE17
2703-150-SE17
2703-153-SE17
2708-242-SE17
2710-171-SE17
2710-254-CM17
2710-266-SE17
2710-268-SE17
2710-90-CM17
2711-135-CM17
2711-136-CM17
2711-151-CM17
2711-159-CM17
2711-163-SE17
2713-159-SE17
2713-160-SE17
272-14-CM17
2727-78-CM17
2727-91-CM17
2730-122-CM17
2730-123-SE17
2730-125-SE17
2730-127-SE17
2730-128-CM17
2732-15-CM17
2732-16-CM17
2734-160-CM17
2734-165-CM17
2734-197-CM17
2734-24-CM17
2734-292-CM17
2735-128-CM17
2735-182-CM17
2735-294-SE17
2737-411-SE17
2737-456-SE17
2741-7-SE17
2745-60-SE17
2747-6-CM17
2757-97-SE17
2759-85-CM17
2759-86-SE17
2762-163-SE17
2762-167-SE17
2762-168-SE17
2763-188-SE17
2763-219-CM17
2763-225-SE17
2766-113-CM17
2766-117-CM17
2767-39-SE17
2771-114-CM17
2775-8-SE17
2776-167-SE17
2778-105-CM17
2778-108-CM17
2778-111-CM17
2778-116-CM17
2778-67-CM17
2778-71-CM17
2778-90-CM17
2778-94-CM17
2780-79-SE17
2780-81-SE17
2783-218-SE17
2783-224-CM17
2786-124-CM17
2788-252-SE17
2788-253-SE17
2789-331-CM17
2791-12-CM17
2791-15-CM17
2792-99-SE17
2793-162-CM17
2793-174-CM17
2793-195-CM17
2800-20-CM17
2803-81-SE17
2806-58-SE17
2826-56-CM17
2827-179-CM17
2827-191-SE17
2827-194-CM17
2833-122-CM17
2833-41-CM17
2859-90-CM17
2904-314-SE17
2904-343-SE17
2904-353-SE17
2917-69-SE17
2917-70-SE17
2917-71-SE17
2917-72-SE17
2917-74-SE17
2923-103-SE17
2923-104-SE17
2929-76-SE17
2945-174-SE17
2945-182-SE17
2945-187-SE17
2945-200-SE17
2948-68-CM17
2948-70-CM17
2950-153-SE17
2950-164-CM17
2950-165-CM17
2950-167-CM17
2961-100-CM17
2961-126-SE17
2961-144-SE17
2961-98-CM17
2974-33-CM17
2974-41-CM17
2980-182-SE17
2980-210-SE17
2981-285-CM17
2981-293-CM17
2981-299-CM17
2981-313-CM17
2981-315-CM17
2986-73-SE17
2989-106-CM17
2992-287-SE17
2992-308-CM17
2994-40-SE17
3000-201-SE17
3000-219-CM17
3000-220-SE17
3000-227-SE17
3000-228-SE17
3000-229-SE17
3013-123-SE17
3013-193-SE17
3013-200-SE17
3014-115-SE17
3016-12-SE17
3016-15-SE17
3016-3-SE17
3016-4-SE17
3016-57-SE17
3021-91-SE17
3021-92-SE17
3024-43-SE17
3036-27-SE17
3036-28-CM17
3039-12-SE17
3046-83-CM17
3047-124-CM17
3047-125-CM17
3069-5-CM17
3069-7-CM17
3073-117-CM17
3076-17-CM17
3076-51-CM17
3085-135-SE17
3086-453-CM16
3090-46-CM17
3113-116-SE16
3117-160-CM17
3117-204-SE17
3129-21-CM17
3129-22-SE17
3130-313-SE17
3130-331-SE17
3130-341-SE17
3130-342-SE17
3140-96-SE17
3140-99-SE17
3141-32-SE17
3145-93-CM17
2403-321-SE17
2403-322-SE17
2403-325-SE17
2404-291-CM17
2404-310-SE17
2404-338-SE17
2404-340-SE17
2404-341-SE17
2404-345-SE17
2404-346-SE17
2409-157-CM17
2409-180-CM17
2409-290-CM17
2410-71-CM17
2410-89-CM17
2412-181-CM17
2412-231-SE17
2412-235-SE17
2412-236-SE17
2416-38-CM17
2416-45-CM17
2416-54-CM17
2416-56-CM17
2416-57-CM17
2420-193-CM17
2420-202-CM17
2421-282-CM17
2422-109-CM17
2422-110-CM17
2422-113-CM17
2424-246-SE17
2424-280-SE17
2424-282-SE17
2427-119-SE17
2427-230-CM17
2428-199-CM17
2428-204-CM17
2429-235-CM17
2429-239-CM17
2429-3011-SE16
2432-64-CM17
2436-319-CM17
2436-322-CM17
2436-325-CM17
2436-339-CM17
2436-341-CM17
2436-358-CM17
2445-144-SE17
2447-1545-CM16
2447-42-CM17
2448-107-SE17
2450-224-SE17
2451-103-CM17
3069-9-SE17
3073-170-CM17
3073-182-SE17
3073-199-SE17
3085-130-SE17
3085-134-SE17
3085-139-SE17
3087-41-SE17
3087-44-CM17
3095-3-CM17
3105-6-SE17
3108-19-CM17
3108-21-CM17
3108-22-SE17
3109-83-CM17
3122-39-CM17
3129-23-SE17
3130-321-SE17
3130-323-SE17
3130-325-CM17
3130-333-SE17
3136-2-CM17
3140-109-SE17
3141-23-SE17
3141-27-SE17
3141-29-SE17
3141-30-SE17
3141-31-SE17
3141-33-SE17
3152-112-SE16
3152-323-SE16
3152-537-SE16
3152-548-SE16
3152-57-SE17
3152-82-SE16
3153-47-CM17
3153-50-SE17
3156-74-CM17
3156-92-CM17
316-183-SE17
316-209-CM17
3172-44-CM17
3178-447-SE17
3178-526-SE17
3178-634-CM17
3178-637-SE17
3178-639-SE17
3179-159-CM17
3181-76-SE17
3182-27-CM17
318-28-SE17
3187-70-CM17
3191-923-SE17
3191-936-SE17
3201-82-CM17
3201-86-CM17
3203-167-CM17
3206-43-SE17
3206-48-SE17
3228-40-CM17
3229-46-CM17
3231-161-SE17
3231-86-CM17
3232-166-CM17
3147-44-SE17
3152-193-SE16
3152-493-SE16
3156-116-CM17
3156-79-CM17
3156-93-CM17
3159-65-CM17
3160-28-SE17
316-181-SE17
316-208-SE17
316-213-CM17
3166-45-SE17
3171-23-CM17
3171-29-CM17
3173-16-CM17
3173-23-CM17
3173-24-CM17
3174-27-CM17
3175-14-SE17
3178-517-SE17
3178-638-SE17
3178-640-SE17
3179-111-CM17
318-27-SE17
318-29-SE17
318-30-SE17
3191-934-SE17
3191-937-SE17
3191-939-SE17
3191-948-SE17
3191-951-SE17
3191-959-SE17
3193-55-CM17
3203-178-SE17
3203-190-SE17
3217-25-SE17
3223-14-CM17
3228-362-CM16
3231-122-SE17
3231-128-SE17
3231-136-SE17
3231-160-SE17
3232-171-SE17
3232-175-SE17
3232-177-SE17
3232-178-SE17
3232-182-SE17
3232-184-SE17
3235-60-CM17
3235-64-CM17
324-55-SE17
3246-122-CM17
3265-117-SE17
3268-107-SE17
3268-111-SE17
3269-18-CM17
3275-435-SE16
3280-42-CM17
3284-204-CM17
3286-194-SE17
3286-195-SE17
3287-59-SE17
3292-58-CM17
3292-64-CM17
3292-66-CM17
3298-137-CM17
2367-2012-SE16
2367-75-SE17
2367-97-CM17
2371-40-CM17
2374-55-CM17
2375-197-CM16
2376-55-CM17
2377-141-SE17
2377-154-SE17
2377-165-SE17
2377-24-SE17
2377-52-SE17
2377-56-SE17
2377-64-SE17
2377-92-SE17
2380-174-SE17
2381-110-CM17
2381-133-SE17
2381-134-CM17
2381-138-SE17
2385-67-CM17
2385-68-CM17
2393-109-CM17
2393-62-CM17
2393-87-SE17
2395-105-SE17
2395-111-SE17
2395-126-SE17
2395-129-SE17
2401-151-SE17
2403-308-SE17
2404-309-SE17
2404-311-CM17
2404-344-SE17
2408-260-SE16
2408-33-CM17
